{
    "date": "1987-10-10", 
    "venue": "The Collective Theater", 
    "location": "Atlanta, Georgia", 
    "setlist": null, 
    "url": null
}{
    "date": "1987-10-15", 
    "venue": "Little Five Points Pub", 
    "location": "Atlanta, Georgia", 
    "setlist": null, 
    "url": null
}