{
    "date": "1988-01-07", 
    "venue": "Uptown Lounge", 
    "location": "Athens, Georgia", 
    "setlist": null, 
    "url": null
}{
    "date": "1988-01-26", 
    "venue": "Uptown Lounge", 
    "location": "Athens, Georgia", 
    "setlist": null, 
    "url": null
}