{
    "date": "1988-05-xx", 
    "venue": "Decatur On The Square", 
    "location": "Decatur, Georgia", 
    "setlist": {
        "regular_set": [
            "Holy City", 
            "Make It Easier", 
            "Summertime", 
            "Prince of Darkness", 
            "Crazy Game", 
            "Thin Line", 
            "The Water Is Wide", 
            "Up in Smoke", 
            "Secure Yourself", 
            "Cold as Ice", 
            "Love of the Common People", 
            "Strange Fire", 
            "Peace Song", 
            "Center Stage", 
            "House at Pooh Corner", 
            "Danny's Song", 
            "Nashville", 
            "The Ballad of Squeaky Fromme", 
            "Love's Recovery", 
            "Love the One You're With", 
            "American Tune", 
            "Get Together"
        ], 
        "encore_set": []
    }, 
    "url": "http://www.lifeblood.net/appearances/1988/198805xx.html"
}{
    "date": "1988-05-15", 
    "venue": "Club Rio", 
    "location": "Atlanta, Georgia", 
    "setlist": null, 
    "url": null
}{
    "date": "1988-05-16", 
    "venue": "The Uptown Lounge", 
    "location": "Athens, Georgia", 
    "setlist": null, 
    "url": null
}{
    "date": "1988-05-17", 
    "venue": "Wrek", 
    "location": "Atlanta, Georgia", 
    "setlist": {
        "regular_set": [
            "Prince of Darkness", 
            "Everybody's Waiting", 
            "Cold as Ice", 
            "Love's Recovery", 
            "Center Stage", 
            "Thin Line", 
            "No Way to Treat a Friend", 
            "Love of the Common People", 
            "Left Me a Fool"
        ], 
        "encore_set": []
    }, 
    "url": "http://www.lifeblood.net/appearances/1988/19880517.html"
}{
    "date": "1988-05-25", 
    "venue": "Cotton Club", 
    "location": "Atlanta, Georgia", 
    "setlist": null, 
    "url": null
}