{
    "date": "1998-09-01", 
    "venue": "The Boathouse", 
    "location": "Norfolk, Virginia", 
    "setlist": {
        "regular_set": [
            "Under Your Skin", 
            "Roll the Dice", 
            "Cimarron", 
            "Everwilling", 
            "Way Below the Radio", 
            "Tengo La Vida", 
            "Soon Be to Nothing", 
            "Chez Virtue", 
            "Love Is Everything", 
            "Faye Tucker", 
            "Who Jumped in My Grave", 
            "Wood Floors", 
            "Go", 
            "Vestigos", 
            "Power of Two", 
            "Ziggy Stardust", 
            "Flirting Is a Flo Thing", 
            "Cannonball", 
            "Midnight Train to Georgia"
        ], 
        "encore_set": []
    }, 
    "url": "http://www.lifeblood.net/appearances/1998/19980901.html"
}{
    "date": "1998-09-02", 
    "venue": "The Electric Factory", 
    "location": "Philadelphia, Pennsylvania", 
    "setlist": {
        "regular_set": [
            "Many Artists Played on Each Song)", 
            "Roll the Dice", 
            "Tengo La Vida", 
            "Vestigos", 
            "Power of Two", 
            "Mystery", 
            "Pullin a Cloud", 
            "Ziggy Stardust", 
            "Wood Floors", 
            "Love Is Everything", 
            "Way Below the Radio", 
            "Soon Be to Nothing", 
            "Go", 
            "Sister", 
            "In Canada", 
            "Chisel", 
            "Gabrielle", 
            "Pale Light", 
            "Cimarron", 
            "Under Your Skin", 
            "Cannonball", 
            "Midnight Train to Georgia"
        ], 
        "encore_set": []
    }, 
    "url": "http://www.lifeblood.net/appearances/1998/19980902.html"
}{
    "date": "1998-09-03", 
    "venue": "Irving Plaza", 
    "location": "New York, New York", 
    "setlist": {
        "regular_set": [
            "Under Your Skin", 
            "Cimarron", 
            "Chez Virtue", 
            "Way Below the Radio", 
            "Roll the Dice", 
            "Vestigios", 
            "Everwilling", 
            "Unknown", 
            "Tengo La Vida", 
            "Pullin a Cloud", 
            "Go", 
            "Wood Floors", 
            "Soon Be to Nothing", 
            "Pale Light", 
            "Love Is Everything", 
            "Power of Two", 
            "Or", 
            "In Canada", 
            "Sister", 
            "Ziggy Stardust", 
            "Fisherman", 
            "Cannonball", 
            "Midnight Train to Georgia"
        ], 
        "encore_set": []
    }, 
    "url": "http://www.lifeblood.net/appearances/1998/19980903.html"
}{
    "date": "1998-10-01", 
    "venue": null, 
    "location": null, 
    "setlist": {
        "regular_set": [], 
        "encore_set": []
    }, 
    "url": "http://www.lifeblood.net/appearances/1998/19981001.html"
}{
    "date": "1998-10-27", 
    "venue": null, 
    "location": null, 
    "setlist": {
        "regular_set": [], 
        "encore_set": []
    }, 
    "url": "http://www.lifeblood.net/appearances/1998/19981027.html"
}