"Shame on You" (Ray) – 4:04
"Get Out the Map" (Saliers) – 3:25
"Shed Your Skin" (Ray) – 4:10
"It's Alright" (Saliers) – 3:05
"Caramia" (Saliers) – 5:48
"Don't Give That Girl a Gun" (Ray) – 4:38
"Leeds" (Saliers) – 3:34
"Scooter Boys" (Ray) – 2:57
"Everything in Its Own Time" (Saliers) – 5:17
"Cut It Out" (Ray) – 3:53
"Burn All the Letters" (Saliers) – 4:09
"Hey Kind Friend" (Ray) – 5:49
