{
    "date": "2010-07-08", 
    "venue": "The Crimson Moon Cafe", 
    "location": "Dahlonega, Georgia", 
    "setlist": {
        "regular_set": [
            "Galileo", 
            "Ozilline", 
            "Run", 
            "Dairy Queen", 
            "Pendulum Swinger", 
            "Starkville", 
            "Philosophy of Loss", 
            "Johnny Rottentale", 
            "Get Out the Map", 
            "Driver Education", 
            "She's Saving Me", 
            "Sugar Tongue", 
            "Power of Two", 
            "Unknown", 
            "Love of Our Lives", 
            "Salty South", 
            "Closer to Fine", 
            "Unknown"
        ], 
        "encore_set": []
    }, 
    "url": "http://www.lifeblood.net/appearances/2010/20100708a.html"
}{
    "date": "2010-07-08", 
    "venue": "The Crimson Moon Cafe", 
    "location": "Dahlonega, Georgia", 
    "setlist": {
        "regular_set": [
            "Unknown", 
            "Fill It Up Again", 
            "Second Time Around", 
            "Get Out the Map", 
            "Three County Highway", 
            "Fleet of Hope", 
            "Unknown", 
            "Philosophy of Loss", 
            "Go", 
            "Power of Two", 
            "Unknown", 
            "Unknown", 
            "Unknown", 
            "All That We Let In", 
            "Chickenman", 
            "Crazy Game", 
            "Salty South", 
            "Closer to Fine"
        ], 
        "encore_set": []
    }, 
    "url": "http://www.lifeblood.net/appearances/2010/20100708b.html"
}{
    "date": "2010-07-09", 
    "venue": "The Crimson Moon Cafe", 
    "location": "Dahlonega, Georgia", 
    "setlist": {
        "regular_set": [
            "Get Out the Map", 
            "Shame on You", 
            "Power of Two", 
            "Become You", 
            "I'll Change", 
            "Unknown", 
            "Cold Beer and Remote Control", 
            "Second Time Around", 
            "Galileo", 
            "Ghost of the Gang", 
            "Southland in the Springtime", 
            "Unknown", 
            "Unknown", 
            "Unknown", 
            "Fleet of Hope", 
            "Salty South", 
            "Closer to Fine"
        ], 
        "encore_set": []
    }, 
    "url": "http://www.lifeblood.net/appearances/2010/20100709a.html"
}{
    "date": "2010-07-09", 
    "venue": "The Crimson Moon Cafe", 
    "location": "Dahlonega, Georgia", 
    "setlist": {
        "regular_set": [
            "Pendulum Swinger", 
            "Go", 
            "Let It Be Me", 
            "Yield", 
            "Power of Two", 
            "Devotion", 
            "Love's Recovery", 
            "Unknown", 
            "Love of Our Lives", 
            "Ozilline", 
            "Unknown", 
            "Dairy Queen", 
            "Fill It Up Again", 
            "Unknown", 
            "Ghost", 
            "Salty South", 
            "Closer to Fine"
        ], 
        "encore_set": []
    }, 
    "url": "http://www.lifeblood.net/appearances/2010/20100709b.html"
}{
    "date": "2010-07-11", 
    "venue": "The Rep Theater", 
    "location": "Seaside, Florida", 
    "setlist": {
        "regular_set": [
            "Pendulum Swinger", 
            "Become You", 
            "Get Out the Map", 
            "Devotion", 
            "Power of Two", 
            "Dairy Queen", 
            "Galileo", 
            "Shame on You", 
            "I'll Change", 
            "More Pills", 
            "Southland in the Springtime", 
            "Driver Education", 
            "Philosophy of Loss", 
            "Ozilline", 
            "Love of Our Lives", 
            "Second Time Around", 
            "Closer to Fine"
        ], 
        "encore_set": []
    }, 
    "url": "http://www.lifeblood.net/appearances/2010/20100711a.html"
}{
    "date": "2010-07-11", 
    "venue": "The Rep Theater", 
    "location": "Seaside, Florida", 
    "setlist": null, 
    "url": null
}{
    "date": "2010-07-12", 
    "venue": "The Rep Theater", 
    "location": "Seaside, Florida", 
    "setlist": null, 
    "url": null
}{
    "date": "2010-07-12", 
    "venue": "The Rep Theater", 
    "location": "Seaside, Florida", 
    "setlist": null, 
    "url": null
}{
    "date": "2010-07-13", 
    "venue": "The Rep Theater", 
    "location": "Seaside, Florida", 
    "setlist": null, 
    "url": null
}{
    "date": "2010-07-13", 
    "venue": "The Rep Theater", 
    "location": "Seaside, Florida", 
    "setlist": null, 
    "url": null
}{
    "date": "2010-07-18", 
    "venue": "Eddie's Attic", 
    "location": "Decatur, Georgia", 
    "setlist": {
        "regular_set": [
            "Pendulum Swinger", 
            "Become You", 
            "Get Out the Map", 
            "Second Time Around", 
            "Thin Line", 
            "Power of Two", 
            "Shame on You", 
            "Love of Our Lives", 
            "Unknown", 
            "She's Saving Me", 
            "Heartache for Everyone", 
            "Fill It Up Again", 
            "Moment of Forgiveness", 
            "I'll Change", 
            "Unknown", 
            "Closer to Fine", 
            "Ozilline"
        ], 
        "encore_set": []
    }, 
    "url": "http://www.lifeblood.net/appearances/2010/20100718a.html"
}{
    "date": "2010-07-18", 
    "venue": "Eddie's Attic", 
    "location": "Decatur, Georgia", 
    "setlist": {
        "regular_set": [
            "Yield", 
            "Run", 
            "Sugar Tongue", 
            "Cold Beer and Remote Control", 
            "Land of Canaan", 
            "Ghost", 
            "Get Out the Map", 
            "Dairy Queen", 
            "Philosophy of Loss", 
            "Unknown", 
            "Devotion", 
            "Second Time Around", 
            "Galileo", 
            "Chickenman", 
            "Love's Recovery", 
            "Ozilline", 
            "Closer to Fine"
        ], 
        "encore_set": []
    }, 
    "url": "http://www.lifeblood.net/appearances/2010/20100718b.html"
}{
    "date": "2010-07-19", 
    "venue": "Eddie's Attic", 
    "location": "Decatur, Georgia", 
    "setlist": {
        "regular_set": [
            "Get Out the Map", 
            "Three Hits", 
            "Fill It Up Again", 
            "Ghost", 
            "Power of Two", 
            "Three County Highway", 
            "Watershed", 
            "Unknown", 
            "Hammer and a Nail", 
            "Sugar Tongue", 
            "Fleet of Hope", 
            "Chickenman", 
            "-", 
            "Bitterroot", 
            "Galileo", 
            "Yield", 
            "She's Saving Me", 
            "Kid Fears", 
            "Closer to Fine"
        ], 
        "encore_set": []
    }, 
    "url": "http://www.lifeblood.net/appearances/2010/20100719a.html"
}{
    "date": "2010-07-19", 
    "venue": "Eddie's Attic", 
    "location": "Decatur, Georgia", 
    "setlist": {
        "regular_set": [
            "Shame on You", 
            "Get Out the Map", 
            "Become You", 
            "Southland in the Springtime", 
            "Second Time Around", 
            "Least Complicated", 
            "Heartache for Everyone", 
            "Philosophy of Loss", 
            "Romeo and Juliet", 
            "Virginia Woolf", 
            "Gone Again", 
            "Prince of Darkness", 
            "Thin Line", 
            "Closer to Fine", 
            "Unknown", 
            "Galileo", 
            "Land of Canaan"
        ], 
        "encore_set": []
    }, 
    "url": "http://www.lifeblood.net/appearances/2010/20100719b.html"
}{
    "date": "2010-07-21", 
    "venue": "The National", 
    "location": "Richmond, Virginia", 
    "setlist": null, 
    "url": null
}{
    "date": "2010-07-22", 
    "venue": "Kentucky Theater", 
    "location": "Lexington, Kentucky", 
    "setlist": null, 
    "url": null
}{
    "date": "2010-07-24", 
    "venue": "Morton Arboretum", 
    "location": "Lisle, Illinois", 
    "setlist": null, 
    "url": null
}{
    "date": "2010-07-25", 
    "venue": "Meijer Gardens", 
    "location": "Grand Rapids, Michigan", 
    "setlist": null, 
    "url": null
}{
    "date": "2010-07-27", 
    "venue": "Greaves Concert Hall, Nku", 
    "location": "Highland Heights, Kentucky", 
    "setlist": null, 
    "url": null
}{
    "date": "2010-07-29", 
    "venue": "Newport Sunset Music Fesitval", 
    "location": "Newport, Rhode Island", 
    "setlist": null, 
    "url": null
}{
    "date": "2010-07-30", 
    "venue": "Lowell Summer Music Series, Boarding House Park", 
    "location": "Lowell, Massachusetts", 
    "setlist": null, 
    "url": null
}{
    "date": "2010-07-31", 
    "venue": "Pnc Bank Arts Center", 
    "location": "Holmdel, New Jersey", 
    "setlist": {
        "regular_set": [
            "Love of Our Lives", 
            "Become You", 
            "Get Out the Map", 
            "Kid Fears", 
            "Heartache for Everyone", 
            "Digging for Your Dream", 
            "Sugar Tongue", 
            "Galileo", 
            "Shame on You", 
            "Love's Recovery", 
            "Closer to Fine"
        ], 
        "encore_set": []
    }, 
    "url": "http://www.lifeblood.net/appearances/2010/20100731.html"
}