{
    "date": "2011-10-01", 
    "venue": "Green Street's \"party At Ponce\"", 
    "location": "Atlanta, Georgia", 
    "setlist": null, 
    "url": null
}{
    "date": "2011-10-06", 
    "venue": "Classic Center Theatre", 
    "location": "Athens, Georgia", 
    "setlist": {
        "regular_set": [
            "Feed and Water the Horses", 
            "Beauty Queen Sister", 
            "Get Out the Map", 
            "Three County Highway", 
            "Pendulum Swinger", 
            "Joking", 
            "Love of Our Lives", 
            "Second Time Around", 
            "Gone", 
            "Making Promises", 
            "We Get to Feel It All", 
            "Unknown", 
            "Fill It Up Again", 
            "Go", 
            "The Wood Song", 
            "War Rugs", 
            "Power of Two", 
            "Damo", 
            "Able to Sing", 
            "Shame on You", 
            "Closer to Fine"
        ], 
        "encore_set": [
            "Share the Moon", 
            "Birthday Song", 
            "Galileo"
        ]
    }, 
    "url": "http://www.lifeblood.net/appearances/2011/20111006.html"
}{
    "date": "2011-10-07", 
    "venue": "Carolina Theatre", 
    "location": "Greensboro, North Carolina", 
    "setlist": {
        "regular_set": [
            "Gone", 
            "Beauty Queen Sister", 
            "Power of Two", 
            "Damo", 
            "Love of Our Lives", 
            "Three Hits", 
            "John", 
            "Making Promises", 
            "Get Out the Map", 
            "Land of Canaan", 
            "We Get to Feel It All", 
            "Ozilline", 
            "What Are You Like", 
            "Yield", 
            "Feed and Water the Horses", 
            "Share the Moon", 
            "Watershed", 
            "Shame on You", 
            "Able to Sing", 
            "War Rugs", 
            "Closer to Fine"
        ], 
        "encore_set": [
            "Unknown", 
            "Birthday Song", 
            "Galileo"
        ]
    }, 
    "url": "http://www.lifeblood.net/appearances/2011/20111007.html"
}{
    "date": "2011-10-08", 
    "venue": "The National", 
    "location": "Richmond, Virginia", 
    "setlist": {
        "regular_set": [
            "Share the Moon", 
            "Gone", 
            "Making Promises", 
            "Get Out the Map", 
            "Joking", 
            "Power of Two", 
            "War Rugs", 
            "Able to Sing", 
            "Yield", 
            "Fill It Up Again", 
            "Three Hits", 
            "We Get to Feel It All", 
            "Damo", 
            "Love of Our Lives", 
            "Go", 
            "John", 
            "Unknown", 
            "Feed and Water the Horses", 
            "Shame on You", 
            "Galileo", 
            "Chickenman"
        ], 
        "encore_set": [
            "Beauty Queen Sister", 
            "Birthday Song", 
            "Closer to Fine"
        ]
    }, 
    "url": "http://www.lifeblood.net/appearances/2011/20111008.html"
}{
    "date": "2011-10-09", 
    "venue": "The Music Center At Strathmore", 
    "location": "N. Bethesda, Maryland", 
    "setlist": {
        "regular_set": [
            "Damo", 
            "Feed and Water the Horses", 
            "Become You", 
            "Power of Two", 
            "Making Promises", 
            "Fill It Up Again", 
            "Ozilline", 
            "We Get to Feel It All", 
            "Beauty Queen Sister", 
            "Get Out the Map", 
            "Share the Moon", 
            "Gone", 
            "Land of Canaan", 
            "Watershed", 
            "War Rugs", 
            "Able to Sing", 
            "Unknown", 
            "John", 
            "Kid Fears", 
            "Galileo", 
            "Shame on You"
        ], 
        "encore_set": [
            "Birthday Song", 
            "Unknown", 
            "Closer to Fine"
        ]
    }, 
    "url": "http://www.lifeblood.net/appearances/2011/20111009.html"
}{
    "date": "2011-10-11", 
    "venue": "Keswick Theatre", 
    "location": "Glenside, Pennsylvania", 
    "setlist": {
        "regular_set": [
            "Damo", 
            "Gone", 
            "Three Hits", 
            "Love of Our Lives", 
            "Making Promises", 
            "We Get to Feel It All", 
            "Beauty Queen Sister", 
            "Fill It Up Again", 
            "Yield", 
            "John", 
            "Share the Moon", 
            "Get Out the Map", 
            "Land of Canaan", 
            "Unknown", 
            "Sugar Tongue", 
            "Feed and Water the Horses", 
            "Become You", 
            "Able to Sing", 
            "War Rugs", 
            "Galileo", 
            "Shame on You"
        ], 
        "encore_set": [
            "Birthday Song", 
            "Unknown", 
            "Closer to Fine"
        ]
    }, 
    "url": "http://www.lifeblood.net/appearances/2011/20111011.html"
}{
    "date": "2011-10-13", 
    "venue": "Beacon Theatre", 
    "location": "New York City, New York", 
    "setlist": {
        "regular_set": [
            "Damo", 
            "Gone", 
            "Three Hits", 
            "Get Out the Map", 
            "Shame on You", 
            "Feed and Water the Horses", 
            "Share the Moon", 
            "Power of Two", 
            "Making Promises", 
            "John", 
            "Yield", 
            "Watershed", 
            "Land of Canaan", 
            "Able to Sing", 
            "War Rugs", 
            "Fill It Up Again", 
            "Unknown", 
            "We Get to Feel It All", 
            "Go", 
            "Galileo", 
            "Chickenman"
        ], 
        "encore_set": [
            "Birthday Song", 
            "Beauty Queen Sister", 
            "Closer to Fine"
        ]
    }, 
    "url": "http://www.lifeblood.net/appearances/2011/20111013.html"
}{
    "date": "2011-10-14", 
    "venue": "Monmouth University Pollak Theatre", 
    "location": "West Long Branch, New Jersey", 
    "setlist": {
        "regular_set": [
            "Damo", 
            "Gone", 
            "Sugar Tongue", 
            "Love of Our Lives", 
            "Joking", 
            "Feed and Water the Horses", 
            "Share the Moon", 
            "Power of Two", 
            "Shame on You", 
            "Get Out the Map", 
            "War Rugs", 
            "We Get to Feel It All", 
            "Become You", 
            "The Wood Song", 
            "Making Promises", 
            "John", 
            "Ozilline", 
            "Able to Sing", 
            "Unknown", 
            "Galileo", 
            "Kid Fears"
        ], 
        "encore_set": [
            "Birthday Song", 
            "Beauty Queen Sister", 
            "Closer to Fine"
        ]
    }, 
    "url": "http://www.lifeblood.net/appearances/2011/20111014.html"
}{
    "date": "2011-10-15", 
    "venue": "Paradise Rock Club", 
    "location": "Boston, Massachusetts", 
    "setlist": {
        "regular_set": [
            "Damo", 
            "Gone", 
            "Three Hits", 
            "Love of Our Lives", 
            "Yield", 
            "We Get to Feel It All", 
            "Beauty Queen Sister", 
            "Get Out the Map", 
            "Land of Canaan", 
            "Feed and Water the Horses", 
            "Share the Moon", 
            "Power of Two", 
            "Gone Again", 
            "The Wood Song", 
            "Making Promises", 
            "Able to Sing", 
            "Reunion", 
            "Pendulum Swinger", 
            "War Rugs", 
            "Galileo", 
            "Shame on You"
        ], 
        "encore_set": [
            "Birthday Song", 
            "Go", 
            "Closer to Fine"
        ]
    }, 
    "url": "http://www.lifeblood.net/appearances/2011/20111015.html"
}{
    "date": "2011-10-16", 
    "venue": "Landmark On Main Street", 
    "location": "Port Washington, New York", 
    "setlist": {
        "regular_set": [
            "Able to Sing", 
            "Damo", 
            "Power of Two", 
            "Sugar Tongue", 
            "Gone", 
            "Making Promises", 
            "Get Out the Map", 
            "Three County Highway", 
            "John", 
            "Dairy Queen", 
            "Love of Our Lives", 
            "Beauty Queen Sister", 
            "We Get to Feel It All", 
            "Joking", 
            "Pendulum Swinger", 
            "Share the Moon", 
            "Feed and Water the Horses", 
            "Ozilline", 
            "Cold Beer and Remote Control", 
            "Shame on You", 
            "Galileo"
        ], 
        "encore_set": [
            "War Rugs", 
            "Birthday Song", 
            "Closer to Fine"
        ]
    }, 
    "url": "http://www.lifeblood.net/appearances/2011/20111016.html"
}{
    "date": "2011-10-18", 
    "venue": "Jonathan's Ogunquit", 
    "location": "Ogunquit, Maine", 
    "setlist": {
        "regular_set": [
            "Damo", 
            "John", 
            "Three Hits", 
            "Power of Two", 
            "Dairy Queen", 
            "Gone", 
            "Beauty Queen Sister", 
            "Get Out the Map", 
            "War Rugs", 
            "Feed and Water the Horses", 
            "Shame on You", 
            "Fill It Up Again", 
            "Sugar Tongue", 
            "Unknown", 
            "Able to Sing", 
            "Making Promises", 
            "It's Alright", 
            "Gone Again", 
            "Birthday Song", 
            "Unknown", 
            "Closer to Fine"
        ], 
        "encore_set": [
            "Share the Moon", 
            "Galileo"
        ]
    }, 
    "url": "http://www.lifeblood.net/appearances/2011/20111018.html"
}{
    "date": "2011-10-21", 
    "venue": "Warner Theatre", 
    "location": "Torrington, Connecticut", 
    "setlist": {
        "regular_set": [
            "Damo", 
            "Gone", 
            "Three Hits", 
            "Love of Our Lives", 
            "Share the Moon", 
            "We Get to Feel It All", 
            "Yield", 
            "Fill It Up Again", 
            "Sugar Tongue", 
            "Birthday Song", 
            "Making Promises", 
            "Power of Two", 
            "Dairy Queen", 
            "Able to Sing", 
            "Shame on You", 
            "Get Out the Map", 
            "War Rugs", 
            "John", 
            "Beauty Queen Sister", 
            "Galileo", 
            "Go"
        ], 
        "encore_set": [
            "Feed and Water the Horses", 
            "Salty South", 
            "Closer to Fine"
        ]
    }, 
    "url": "http://www.lifeblood.net/appearances/2011/20111021.html"
}{
    "date": "2011-10-22", 
    "venue": "Keefe Auditorium", 
    "location": "Nashua, New Hampshire", 
    "setlist": {
        "regular_set": [
            "Damo", 
            "Gone", 
            "Sugar Tongue", 
            "Power of Two", 
            "Joking", 
            "Feed and Water the Horses", 
            "Making Promises", 
            "Get Out the Map", 
            "Unknown", 
            "John", 
            "Land of Canaan", 
            "The Wood Song", 
            "Unknown", 
            "Birthday Song", 
            "Shame on You", 
            "Fill It Up Again", 
            "War Rugs", 
            "Able to Sing", 
            "Beauty Queen Sister", 
            "Galileo", 
            "Chickenman"
        ], 
        "encore_set": [
            "We Get to Feel It All", 
            "Salty South", 
            "Closer to Fine"
        ]
    }, 
    "url": "http://www.lifeblood.net/appearances/2011/20111022.html"
}{
    "date": "2011-10-23", 
    "venue": "Woodstock Playhouse", 
    "location": "Woodstock, New York", 
    "setlist": {
        "regular_set": [
            "Damo", 
            "Gone", 
            "Three Hits", 
            "Love of Our Lives", 
            "Making Promises", 
            "We Get to Feel It All", 
            "Dairy Queen", 
            "Get Out the Map", 
            "War Rugs", 
            "Feed and Water the Horses", 
            "Go", 
            "Power of Two", 
            "Share the Moon", 
            "John", 
            "Shame on You", 
            "Able to Sing", 
            "Unknown", 
            "Watershed", 
            "Beauty Queen Sister", 
            "Galileo", 
            "Kid Fears"
        ], 
        "encore_set": [
            "Birthday Song", 
            "Salty South", 
            "Closer to Fine"
        ]
    }, 
    "url": "http://www.lifeblood.net/appearances/2011/20111023.html"
}{
    "date": "2011-10-25", 
    "venue": "The Egg", 
    "location": "Albany, New York", 
    "setlist": {
        "regular_set": [
            "Damo", 
            "Gone", 
            "Three Hits", 
            "Get Out the Map", 
            "Become You", 
            "We Get to Feel It All", 
            "Making Promises", 
            "Fill It Up Again", 
            "Share the Moon", 
            "Feed and Water the Horses", 
            "Land of Canaan", 
            "Power of Two", 
            "War Rugs", 
            "Able to Sing", 
            "Go", 
            "The Wood Song", 
            "Beauty Queen Sister", 
            "John", 
            "Reunion", 
            "Galileo", 
            "Kid Fears"
        ], 
        "encore_set": [
            "Birthday Song", 
            "Salty South", 
            "Closer to Fine"
        ]
    }, 
    "url": "http://www.lifeblood.net/appearances/2011/20111025.html"
}{
    "date": "2011-10-26", 
    "venue": "Allentown Symphony Hall", 
    "location": "Allentown, Pennsylvania", 
    "setlist": {
        "regular_set": [
            "Damo", 
            "Gone", 
            "Sugar Tongue", 
            "Power of Two", 
            "Gone Again", 
            "John", 
            "Beauty Queen Sister", 
            "Get Out the Map", 
            "Share the Moon", 
            "Feed and Water the Horses", 
            "Shame on You", 
            "Pendulum Swinger", 
            "Second Time Around", 
            "We Get to Feel It All", 
            "Making Promises", 
            "Able to Sing", 
            "Reunion", 
            "Love of Our Lives", 
            "Unknown", 
            "Galileo", 
            "Kid Fears"
        ], 
        "encore_set": [
            "Birthday Song", 
            "Salty South", 
            "Closer to Fine"
        ]
    }, 
    "url": "http://www.lifeblood.net/appearances/2011/20111026.html"
}{
    "date": "2011-10-27", 
    "venue": "Whitaker Center", 
    "location": "Harrisburg, Pennsylvania", 
    "setlist": {
        "regular_set": [
            "Damo", 
            "Gone", 
            "Three Hits", 
            "Fill It Up Again", 
            "Making Promises", 
            "We Get to Feel It All", 
            "Gone Again", 
            "Cold Beer and Remote Control", 
            "War Rugs", 
            "John", 
            "Shame on You", 
            "Get Out the Map", 
            "Reunion", 
            "Feed and Water the Horses", 
            "Beauty Queen Sister", 
            "Watershed", 
            "Unknown", 
            "Able to Sing", 
            "Share the Moon", 
            "Galileo", 
            "Kid Fears"
        ], 
        "encore_set": [
            "Birthday Song", 
            "Salty South", 
            "Closer to Fine"
        ]
    }, 
    "url": "http://www.lifeblood.net/appearances/2011/20111027.html"
}