{
    "date": "2011-04-21", 
    "venue": "Concert Hall", 
    "location": "Perth, Australia", 
    "setlist": {
        "regular_set": [
            "Love of Our Lives", 
            "Sugar Tongue", 
            "Get Out the Map", 
            "Devotion", 
            "Power of Two", 
            "Yield", 
            "Fleet of Hope", 
            "Become You", 
            "What Are You Like", 
            "Second Time Around", 
            "Ghost", 
            "Shame on You", 
            "Fill It Up Again", 
            "Dairy Queen", 
            "Love's Recovery", 
            "Ozilline", 
            "Least Complicated", 
            "Go", 
            "The Wood Song", 
            "Unknown Speaker", 
            "Kid Fears", 
            "Closer to Fine"
        ], 
        "encore_set": [
            "Three County Highway", 
            "Galileo"
        ]
    }, 
    "url": "http://www.lifeblood.net/appearances/2011/20110421.html"
}{
    "date": "2011-04-23", 
    "venue": "East Coast Blues And Roots Festival", 
    "location": "Byron Bay, Australia", 
    "setlist": null, 
    "url": null
}{
    "date": "2011-04-26", 
    "venue": "Queensland Performing Arts Center", 
    "location": "Brisbane, Australia", 
    "setlist": {
        "regular_set": [
            "Love of Our Lives", 
            "Sugar Tongue", 
            "Fill It Up Again", 
            "Yield", 
            "Power of Two", 
            "Dairy Queen", 
            "Come on Home", 
            "Ozilline", 
            "What Are You Like", 
            "Shame on You", 
            "Get Out the Map", 
            "Heartache for Everyone", 
            "Fleet of Hope", 
            "Three County Highway", 
            "Unknown Speaker", 
            "Watershed", 
            "Land of Canaan", 
            "Run", 
            "Reunion", 
            "Ghost", 
            "Chickenman", 
            "Closer to Fine"
        ], 
        "encore_set": [
            "Second Time Around", 
            "Galileo"
        ]
    }, 
    "url": "http://www.lifeblood.net/appearances/2011/20110426.html"
}{
    "date": "2011-04-27", 
    "venue": "Canberra Theatre", 
    "location": "Canberra, Australia", 
    "setlist": {
        "regular_set": [
            "Hammer and a Nail", 
            "Yield", 
            "Least Complicated", 
            "Sugar Tongue", 
            "Power of Two", 
            "Heartache for Everyone", 
            "Love of Our Lives", 
            "Ozilline", 
            "Love's Recovery", 
            "Become You", 
            "Get Out the Map", 
            "Shame on You", 
            "Fill It Up Again", 
            "Three County Highway", 
            "Fleet of Hope", 
            "Chickenman", 
            "The Wood Song", 
            "Second Time Around", 
            "Cold Beer and Remote Control", 
            "Land of Canaan", 
            "Closer to Fine"
        ], 
        "encore_set": [
            "Kid Fears", 
            "Galileo"
        ]
    }, 
    "url": "http://www.lifeblood.net/appearances/2011/20110427.html"
}{
    "date": "2011-04-28", 
    "venue": "The State Theatre", 
    "location": "Sydney, Australia", 
    "setlist": {
        "regular_set": [
            "Love of Our Lives", 
            "Sugar Tongue", 
            "Pendulum Swinger", 
            "Ozilline", 
            "Power of Two", 
            "Become You", 
            "Fleet of Hope", 
            "Yield", 
            "Fill It Up Again", 
            "Three County Highway", 
            "Run", 
            "Heartache for Everyone", 
            "Ghost", 
            "Shame on You", 
            "Get Out the Map", 
            "Land of Canaan", 
            "She's Saving Me", 
            "Second Time Around", 
            "Watershed", 
            "Chickenman", 
            "Closer to Fine"
        ], 
        "encore_set": [
            "Go", 
            "Galileo"
        ]
    }, 
    "url": "http://www.lifeblood.net/appearances/2011/20110428.html"
}{
    "date": "2011-04-29", 
    "venue": "The Palais Theatre", 
    "location": "Melbourne, Australia", 
    "setlist": {
        "regular_set": [
            "Love of Our Lives", 
            "Sugar Tongue", 
            "Least Complicated", 
            "Ozilline", 
            "Power of Two", 
            "Become You", 
            "Get Out the Map", 
            "World Falls", 
            "Fleet of Hope", 
            "Driver Education", 
            "Pendulum Swinger", 
            "Yield", 
            "Love's Recovery", 
            "Heartache for Everyone", 
            "Fill It Up Again", 
            "Go", 
            "Ghost", 
            "Shame on You", 
            "Watershed", 
            "Kid Fears", 
            "Closer to Fine"
        ], 
        "encore_set": [
            "Second Time Around", 
            "Galileo"
        ]
    }, 
    "url": "http://www.lifeblood.net/appearances/2011/20110429.html"
}