{
    "date": "2012-11-01", 
    "venue": "Playhouse Square", 
    "location": "Cleveland, Ohio", 
    "setlist": {
        "regular_set": [
            "Least Complicated", 
            "Heartache for Everyone", 
            "Gone", 
            "Share the Moon", 
            "Get Out the Map", 
            "Driver Education", 
            "Fill It Up Again", 
            "Tried to Be True", 
            "Mystery", 
            "Three Hits", 
            "Trouble", 
            "Shed Your Skin", 
            "Love of Our Lives", 
            "Moment of Forgiveness", 
            "Virginia Woolf", 
            "Making Promises", 
            "What Are You Like", 
            "Go", 
            "Closer to Fine", 
            "Shame on You", 
            "Galileo"
        ], 
        "encore_set": [
            "War Rugs", 
            "Tangled Up in Blue"
        ]
    }, 
    "url": "http://www.lifeblood.net/appearances/2012/20121101.html"
}{
    "date": "2012-11-02", 
    "venue": null, 
    "location": null, 
    "setlist": {
        "regular_set": [
            "Least Complicated", 
            "Making Promises", 
            "Get Out the Map", 
            "Mariner Moonlighting", 
            "Gone", 
            "Three Hits", 
            "Love of Our Lives", 
            "Gone Again", 
            "Trouble", 
            "Tried to Be True", 
            "Power of Two", 
            "Shame on You", 
            "Fill It Up Again", 
            "Tether", 
            "We Get to Feel It All", 
            "Kid Fears", 
            "Virginia Woolf", 
            "Shed Your Skin", 
            "Closer to Fine", 
            "Go", 
            "Galileo"
        ], 
        "encore_set": [
            "Share the Moon", 
            "Tangled Up in Blue"
        ]
    }, 
    "url": "http://www.lifeblood.net/appearances/2012/20121102.html"
}{
    "date": "2012-11-03", 
    "venue": "The Paramount Theatre", 
    "location": "Aurora, Illinois", 
    "setlist": {
        "regular_set": [
            "Least Complicated", 
            "Heartache for Everyone", 
            "Gone", 
            "Shed Your Skin", 
            "Get Out the Map", 
            "Driver Education", 
            "Feed and Water the Horses", 
            "Moment of Forgiveness", 
            "Cold Beer and Remote Control", 
            "Three Hits", 
            "Mystery", 
            "Making Promises", 
            "Trouble", 
            "Kid Fears", 
            "Virginia Woolf", 
            "Shame on You", 
            "Love of Our Lives", 
            "Tether", 
            "Closer to Fine", 
            "Go", 
            "Galileo"
        ], 
        "encore_set": [
            "Share the Moon", 
            "Tangled Up in Blue"
        ]
    }, 
    "url": "http://www.lifeblood.net/appearances/2012/20121103.html"
}{
    "date": "2012-11-04", 
    "venue": "The Englert Theatre", 
    "location": "Iowa City, Iowa", 
    "setlist": {
        "regular_set": [
            "Least Complicated", 
            "Tried to Be True", 
            "Get Out the Map", 
            "Making Promises", 
            "Gone", 
            "Three Hits", 
            "Love of Our Lives", 
            "Shame on You", 
            "Fill It Up Again", 
            "Moment of Forgiveness", 
            "Unknown", 
            "Shed Your Skin", 
            "Trouble", 
            "Mariner Moonlighting", 
            "Virginia Woolf", 
            "Tether", 
            "Mystery", 
            "Go", 
            "Closer to Fine", 
            "Kid Fears", 
            "Galileo"
        ], 
        "encore_set": [
            "Share the Moon", 
            "Tangled Up in Blue"
        ]
    }, 
    "url": "http://www.lifeblood.net/appearances/2012/20121104.html"
}{
    "date": "2012-11-05", 
    "venue": "Old Town School Of Music", 
    "location": "Chicago, Illinois", 
    "setlist": {
        "regular_set": [
            "Least Complicated", 
            "Shed Your Skin", 
            "Get Out the Map", 
            "Mariner Moonlighting", 
            "Gone", 
            "Tried to Be True", 
            "Love of Our Lives", 
            "Moment of Forgiveness", 
            "Virginia Woolf", 
            "Go", 
            "We Get to Feel It All", 
            "Making Promises", 
            "Mystery", 
            "Three Hits", 
            "Galileo", 
            "Kid Fears", 
            "Closer to Fine", 
            "Shame on You"
        ], 
        "encore_set": [
            "Share the Moon", 
            "Tangled Up in Blue"
        ]
    }, 
    "url": "http://www.lifeblood.net/appearances/2012/20121105.html"
}{
    "date": "2012-11-09", 
    "venue": "Arlene Schnitzer Concert Hall", 
    "location": "Portland, Oregon", 
    "setlist": null, 
    "url": null
}