{
    "date": "2012-07-12", 
    "venue": "Tipitina's", 
    "location": "New Orleans, Louisiana", 
    "setlist": {
        "regular_set": [
            "Least Complicated", 
            "Heartache for Everyone", 
            "Gone", 
            "Moment of Forgiveness", 
            "Get Out the Map", 
            "Three Hits", 
            "What Are You Like", 
            "Shame on You", 
            "Love of Our Lives", 
            "Tried to Be True", 
            "Trouble", 
            "Devotion", 
            "Fly Away", 
            "Go", 
            "Fill It Up Again", 
            "Beauty Queen Sister", 
            "Digging for Your Dream", 
            "Shed Your Skin", 
            "Closer to Fine", 
            "Tether", 
            "Galileo"
        ], 
        "encore_set": [
            "Share the Moon", 
            "Tangled Up in Blue"
        ]
    }, 
    "url": "http://www.lifeblood.net/appearances/2012/20120712.html"
}{
    "date": "2012-07-13", 
    "venue": "Paramount Theatre", 
    "location": "Austin, Texas", 
    "setlist": {
        "regular_set": [
            "Least Complicated", 
            "Tried to Be True", 
            "Gone", 
            "Making Promises", 
            "Get Out the Map", 
            "Mariner Moonlighting", 
            "Trouble", 
            "Heartache for Everyone", 
            "Love of Our Lives", 
            "Moment of Forgiveness", 
            "Virginia Woolf", 
            "Three Hits", 
            "What Are You Like", 
            "Shed Your Skin", 
            "Feed and Water the Horses", 
            "Shame on You", 
            "Fly Away", 
            "Tether", 
            "Closer to Fine", 
            "Go", 
            "Galileo"
        ], 
        "encore_set": [
            "Share the Moon", 
            "Tangled Up in Blue"
        ]
    }, 
    "url": "http://www.lifeblood.net/appearances/2012/20120713.html"
}{
    "date": "2012-07-14", 
    "venue": "House Of Blues", 
    "location": "Houston, Texas", 
    "setlist": {
        "regular_set": [
            "Least Complicated", 
            "Heartache for Everyone", 
            "Gone", 
            "Beauty Queen Sister", 
            "Cold Beer and Remote Control", 
            "Mariner Moonlighting", 
            "Get Out the Map", 
            "Shed Your Skin", 
            "Trouble", 
            "Tried to Be True", 
            "Virginia Woolf", 
            "Moment of Forgiveness", 
            "Love of Our Lives", 
            "Shame on You", 
            "Fly Away", 
            "Tether", 
            "What Are You Like", 
            "Share the Moon", 
            "Closer to Fine", 
            "Go", 
            "Galileo"
        ], 
        "encore_set": [
            "War Rugs", 
            "Tangled Up in Blue"
        ]
    }, 
    "url": "http://www.lifeblood.net/appearances/2012/20120714.html"
}{
    "date": "2012-07-15", 
    "venue": "Cain's Ballroom", 
    "location": "Tulsa, Oklahoma", 
    "setlist": {
        "regular_set": [
            "Least Complicated", 
            "Heartache for Everyone", 
            "Gone", 
            "Making Promises", 
            "Get Out the Map", 
            "Shed Your Skin", 
            "Trouble", 
            "Mariner Moonlighting", 
            "Fill It Up Again", 
            "Gone Again", 
            "Love of Our Lives", 
            "Tried to Be True", 
            "Virginia Woolf", 
            "Shame on You", 
            "Fly Away", 
            "Devotion", 
            "What Are You Like", 
            "Tether", 
            "Closer to Fine", 
            "Go", 
            "Galileo"
        ], 
        "encore_set": [
            "Share the Moon", 
            "Tangled Up in Blue"
        ]
    }, 
    "url": "http://www.lifeblood.net/appearances/2012/20120715.html"
}{
    "date": "2012-07-17", 
    "venue": "Blue Note", 
    "location": "Columbia, Missouri", 
    "setlist": {
        "regular_set": [
            "Least Complicated", 
            "Heartache for Everyone", 
            "Gone", 
            "Shame on You", 
            "Trouble", 
            "Shed Your Skin", 
            "Get Out the Map", 
            "Making Promises", 
            "Virginia Woolf", 
            "War Rugs", 
            "Cold Beer and Remote Control", 
            "Beauty Queen Sister", 
            "Love of Our Lives", 
            "Moment of Forgiveness", 
            "Fly Away", 
            "Go", 
            "The Wood Song", 
            "Tether", 
            "Closer to Fine", 
            "Kid Fears", 
            "Galileo"
        ], 
        "encore_set": [
            "Share the Moon", 
            "Tangled Up in Blue"
        ]
    }, 
    "url": "http://www.lifeblood.net/appearances/2012/20120717.html"
}{
    "date": "2012-07-19", 
    "venue": "Voodoo", 
    "location": "Kansas City, Missouri", 
    "setlist": {
        "regular_set": [
            "Least Complicated", 
            "Heartache for Everyone", 
            "Gone", 
            "Shame on You", 
            "Get Out the Map", 
            "Tried to Be True", 
            "Feed and Water the Horses", 
            "Mariner Moonlighting", 
            "Power of Two", 
            "Shed Your Skin", 
            "Trouble", 
            "Moment of Forgiveness", 
            "Virginia Woolf", 
            "Making Promises", 
            "What Are You Like", 
            "Share the Moon", 
            "Love of Our Lives", 
            "Tether", 
            "Closer to Fine", 
            "Go", 
            "Galileo"
        ], 
        "encore_set": [
            "All That We Let In", 
            "Tangled Up in Blue"
        ]
    }, 
    "url": "http://www.lifeblood.net/appearances/2012/20120719.html"
}{
    "date": "2012-07-20", 
    "venue": null, 
    "location": null, 
    "setlist": {
        "regular_set": [
            "Least Complicated", 
            "Heartache for Everyone", 
            "Gone", 
            "Moment of Forgiveness", 
            "Get Out the Map", 
            "Shame on You", 
            "Trouble", 
            "Shed Your Skin", 
            "We Get to Feel It All", 
            "Gone Again", 
            "Love of Our Lives", 
            "Making Promises", 
            "Virginia Woolf", 
            "Beauty Queen Sister", 
            "Power of Two", 
            "Tried to Be True", 
            "What Are You Like", 
            "Tether", 
            "Closer to Fine", 
            "Go", 
            "Galileo"
        ], 
        "encore_set": [
            "Share the Moon", 
            "Tangled Up in Blue"
        ]
    }, 
    "url": "http://www.lifeblood.net/appearances/2012/20120720.html"
}{
    "date": "2012-07-21", 
    "venue": "The Pageant", 
    "location": "St. Louis, Missouri", 
    "setlist": {
        "regular_set": [
            "Least Complicated", 
            "Heartache for Everyone", 
            "Gone", 
            "Shame on You", 
            "Get Out the Map", 
            "Three Hits", 
            "We Get to Feel It All", 
            "Gone Again", 
            "Feed and Water the Horses", 
            "Shed Your Skin", 
            "Love of Our Lives", 
            "Beauty Queen Sister", 
            "Trouble", 
            "Mariner Moonlighting", 
            "Virginia Woolf", 
            "Land of Canaan", 
            "What Are You Like", 
            "Go", 
            "Closer to Fine", 
            "Making Promises", 
            "Galileo"
        ], 
        "encore_set": [
            "Share the Moon", 
            "Tangled Up in Blue"
        ]
    }, 
    "url": "http://www.lifeblood.net/appearances/2012/20120721.html"
}{
    "date": "2012-07-22", 
    "venue": "Lc Pavillion", 
    "location": "Columbus, Ohio", 
    "setlist": {
        "regular_set": [
            "Least Complicated", 
            "Heartache for Everyone", 
            "Gone", 
            "Moment of Forgiveness", 
            "Fill It Up Again", 
            "Making Promises", 
            "Trouble", 
            "Shed Your Skin", 
            "Get Out the Map", 
            "War Rugs", 
            "Love of Our Lives", 
            "Tried to Be True", 
            "What Are You Like", 
            "Shame on You", 
            "Virginia Woolf", 
            "Driver Education", 
            "Digging for Your Dream", 
            "Tether", 
            "Closer to Fine", 
            "Go", 
            "Galileo"
        ], 
        "encore_set": [
            "Share the Moon", 
            "Tangled Up in Blue"
        ]
    }, 
    "url": "http://www.lifeblood.net/appearances/2012/20120722.html"
}{
    "date": "2012-07-24", 
    "venue": "Kentucky Theater", 
    "location": "Lexington, Kentucky", 
    "setlist": {
        "regular_set": [
            "Least Complicated", 
            "Heartache for Everyone", 
            "Gone", 
            "Moment of Forgiveness", 
            "Get Out the Map", 
            "Mariner Moonlighting", 
            "Fill It Up Again", 
            "Making Promises", 
            "Trouble", 
            "Shed Your Skin", 
            "We Get to Feel It All", 
            "Gone Again", 
            "Love of Our Lives", 
            "Go", 
            "What Are You Like", 
            "Shame on You", 
            "Virginia Woolf", 
            "Three Hits", 
            "Closer to Fine", 
            "Tether", 
            "Galileo"
        ], 
        "encore_set": [
            "Share the Moon", 
            "Tangled Up in Blue"
        ]
    }, 
    "url": "http://www.lifeblood.net/appearances/2012/20120724.html"
}{
    "date": "2012-07-25", 
    "venue": "Bijou Theatre", 
    "location": "Knoxville, Tennessee", 
    "setlist": {
        "regular_set": [
            "Least Complicated", 
            "Heartache for Everyone", 
            "Gone", 
            "Beauty Queen Sister", 
            "Get Out the Map", 
            "Moment of Forgiveness", 
            "Cold Beer and Remote Control", 
            "Tried to Be True", 
            "Power of Two", 
            "Three Hits", 
            "Trouble", 
            "Shed Your Skin", 
            "Virginia Woolf", 
            "Tether", 
            "What Are You Like", 
            "Making Promises", 
            "Love of Our Lives", 
            "Go", 
            "Closer to Fine", 
            "Shame on You", 
            "Galileo"
        ], 
        "encore_set": [
            "Share the Moon", 
            "Tangled Up in Blue"
        ]
    }, 
    "url": "http://www.lifeblood.net/appearances/2012/20120725.html"
}{
    "date": "2012-07-26", 
    "venue": "Maymont", 
    "location": "Richmond, Virginia", 
    "setlist": {
        "regular_set": [
            "Least Complicated", 
            "Heartache for Everyone", 
            "Gone", 
            "Moment of Forgiveness", 
            "Get Out the Map", 
            "Shame on You", 
            "Fill It Up Again", 
            "Damo", 
            "We Get to Feel It All", 
            "Making Promises", 
            "What Are You Like", 
            "Tried to Be True", 
            "Virginia Woolf", 
            "Gone Again", 
            "Trouble", 
            "Shed Your Skin", 
            "Love of Our Lives", 
            "Unknown", 
            "Closer to Fine", 
            "Unknown", 
            "Galileo"
        ], 
        "encore_set": [
            "Share the Moon", 
            "Tangled Up in Blue"
        ]
    }, 
    "url": "http://www.lifeblood.net/appearances/2012/20120726.html"
}{
    "date": "2012-07-28", 
    "venue": "Tivoli Theatre", 
    "location": "Chattanooga, Tennessee", 
    "setlist": {
        "regular_set": [
            "Damo", 
            "Love of Our Lives", 
            "Sugar Tongue", 
            "Feed and Water the Horses", 
            "World Falls", 
            "Mystery", 
            "Compromise", 
            "Power of Two", 
            "Yoke", 
            "Galileo", 
            "Intermission", 
            "The Wood Song", 
            "Kid Fears", 
            "Able to Sing", 
            "War Rugs", 
            "Come on Home", 
            "Fugitive", 
            "Ghost", 
            "Chickenman", 
            "Closer to Fine"
        ], 
        "encore_set": []
    }, 
    "url": "http://www.lifeblood.net/appearances/2012/20120728.html"
}