{
    "date": "2014-08-09", 
    "venue": "Regina Folk Festival", 
    "location": "Regina, Saskatchewan", 
    "setlist": null, 
    "url": null
}{
    "date": "2014-08-11", 
    "venue": "Ocean City Music Pier", 
    "location": "Ocean City, New Jersey", 
    "setlist": {
        "regular_set": [
            "Ozilline", 
            "Love of Our Lives", 
            "Three Hits", 
            "Get Out the Map", 
            "Moment of Forgiveness", 
            "Cold Beer and Remote Control", 
            "Dairy Queen", 
            "I'll Change", 
            "Share the Moon", 
            "Fill It Up Again", 
            "Compromise", 
            "Power of Two", 
            "Yield", 
            "Able to Sing", 
            "Unknown", 
            "Go", 
            "Virginia Woolf", 
            "Second Time Around", 
            "The Wood Song", 
            "Shame on You", 
            "Galileo"
        ], 
        "encore_set": [
            "Closer to Fine", 
            "The Devil Went Down to Georgia"
        ]
    }, 
    "url": "http://www.lifeblood.net/appearances/2014/20140811.html"
}{
    "date": "2014-08-12", 
    "venue": "Sun Center", 
    "location": "Aston, Pennsylvania", 
    "setlist": null, 
    "url": null
}{
    "date": "2014-08-13", 
    "venue": "Sunoco Performance Theater", 
    "location": "Harrisburg, Pennslyvania", 
    "setlist": {
        "regular_set": [
            "Ozilline", 
            "Love of Our Lives", 
            "Become You", 
            "Power of Two", 
            "Sugar Tongue", 
            "What Are You Like", 
            "Three Hits", 
            "Leaving", 
            "Yield", 
            "Fill It Up Again", 
            "Dairy Queen", 
            "The Wood Song", 
            "Go", 
            "Get Out the Map", 
            "Share the Moon", 
            "Able to Sing", 
            "Unknown", 
            "Shame on You", 
            "Watershed", 
            "Unknown", 
            "Galileo"
        ], 
        "encore_set": [
            "Closer to Fine", 
            "The Devil Went Down to Georgia"
        ]
    }, 
    "url": "http://www.lifeblood.net/appearances/2014/20140813.html"
}{
    "date": "2014-08-14", 
    "venue": "Lock 3", 
    "location": "Akron, Ohio", 
    "setlist": {
        "regular_set": [
            "Three Hits", 
            "Get Out the Map", 
            "Shame on You", 
            "The Wood Song", 
            "Three County Highway", 
            "Power of Two", 
            "Become You", 
            "What Are You Like", 
            "Yield", 
            "Leaving", 
            "Go", 
            "Fill It Up Again", 
            "Unknown", 
            "Cold Beer and Remote Control", 
            "Share the Moon", 
            "Galileo"
        ], 
        "encore_set": [
            "Closer to Fine", 
            "The Devil Went Down to Georgia"
        ]
    }, 
    "url": "http://www.lifeblood.net/appearances/2014/20140814.html"
}{
    "date": "2014-08-21", 
    "venue": "Capitol Theatre Backstage", 
    "location": "Olympia, Washington", 
    "setlist": null, 
    "url": null
}{
    "date": "2014-08-22", 
    "venue": "The Triple Door", 
    "location": "Seattle, Washington", 
    "setlist": null, 
    "url": null
}{
    "date": "2014-08-23", 
    "venue": "Doug Fir Lounge", 
    "location": "Portland, Oregon", 
    "setlist": null, 
    "url": null
}{
    "date": "2014-08-29", 
    "venue": "Riveredge Park", 
    "location": "Aurora, Illinois", 
    "setlist": {
        "regular_set": [
            "Get Out the Map", 
            "Fill It Up Again", 
            "Shame on You", 
            "Closer to Fine", 
            "The Devil Went Down to Georgia"
        ], 
        "encore_set": []
    }, 
    "url": "http://www.lifeblood.net/appearances/2014/20140829.html"
}