{
    "date": "2014-11-03", 
    "venue": "Francis Winspear Centre For Music", 
    "location": "Edmonton, Alberta", 
    "setlist": {
        "regular_set": [
            "Love of Our Lives", 
            "Sugar Tongue", 
            "Power of Two", 
            "Compromise", 
            "The Wood Song", 
            "Yoke", 
            "Galileo", 
            "Chickenman", 
            "Go", 
            "Mystery", 
            "Damo", 
            "Virginia Woolf", 
            "World Falls", 
            "Ghost", 
            "Kid Fears", 
            "Closer to Fine"
        ], 
        "encore_set": []
    }, 
    "url": "http://www.lifeblood.net/appearances/2014/20141103.html"
}{
    "date": "2014-11-04", 
    "venue": null, 
    "location": null, 
    "setlist": null, 
    "url": null
}{
    "date": "2014-11-05", 
    "venue": null, 
    "location": null, 
    "setlist": null, 
    "url": null
}{
    "date": "2014-11-06", 
    "venue": null, 
    "location": null, 
    "setlist": {
        "regular_set": [
            "Shame on You", 
            "Love of Our Lives", 
            "Three County Highway", 
            "Get Out the Map", 
            "Become You", 
            "Everything in Its Own Time", 
            "Second Time Around", 
            "Able to Sing", 
            "Go", 
            "Virginia Woolf", 
            "Share the Moon", 
            "Closer to Fine"
        ], 
        "encore_set": [
            "Galileo"
        ]
    }, 
    "url": "http://www.lifeblood.net/appearances/2014/20141106.html"
}{
    "date": "2014-11-07", 
    "venue": null, 
    "location": null, 
    "setlist": {
        "regular_set": [
            "Fugitive", 
            "Power of Two", 
            "Yield", 
            "John", 
            "Sugar Tongue", 
            "The Wood Song", 
            "Unknown", 
            "Ghost", 
            "Share the Moon", 
            "Watershed", 
            "Kid Fears", 
            "Galileo"
        ], 
        "encore_set": [
            "Closer to Fine"
        ]
    }, 
    "url": "http://www.lifeblood.net/appearances/2014/20141107.html"
}{
    "date": "2014-11-08", 
    "venue": null, 
    "location": null, 
    "setlist": null, 
    "url": null
}