{
    "date": "2015-04-12", 
    "venue": "The Kimmel Center For Performing Arts", 
    "location": "Philadelphia, Pennsylvania", 
    "setlist": {
        "regular_set": [
            "Love of Our Lives", 
            "Damo", 
            "Power of Two", 
            "Yoke", 
            "The Wood Song", 
            "Compromise", 
            "Virginia Woolf", 
            "Chickenman", 
            "Fugitive", 
            "Mystery", 
            "World Falls", 
            "Galileo", 
            "Go", 
            "Ghost", 
            "Kid Fears", 
            "Closer to Fine"
        ], 
        "encore_set": []
    }, 
    "url": "http://www.lifeblood.net/appearances/2015/20150412.html"
}{
    "date": "2015-04-15", 
    "venue": "Durham Performing Arts Center", 
    "location": "Durham, North Carolina", 
    "setlist": null, 
    "url": null
}{
    "date": "2015-04-17", 
    "venue": "Ferguson Center For The Arts", 
    "location": "Newport News, Virginia", 
    "setlist": null, 
    "url": null
}{
    "date": "2015-04-19", 
    "venue": "Music Hall", 
    "location": "Cincinnati, Ohio", 
    "setlist": null, 
    "url": null
}{
    "date": "2015-04-22", 
    "venue": null, 
    "location": null, 
    "setlist": {
        "regular_set": [
            "Duane Allman", 
            "The Rise of the Black Messiah", 
            "Spread the Pain Around"
        ], 
        "encore_set": []
    }, 
    "url": "http://www.lifeblood.net/appearances/2015/20150422.html"
}{
    "date": "2015-04-25", 
    "venue": "Panoply Festival Of The Arts", 
    "location": "Huntville, Alabama", 
    "setlist": {
        "regular_set": [
            "Get Out the Map", 
            "Become You", 
            "The Wood Song", 
            "Sugar Tongue", 
            "Love of Our Lives", 
            "Go", 
            "Southland in the Springtime", 
            "Happy in the Sorrow Key", 
            "Hammer and a Nail", 
            "Shame on You", 
            "Elizabeth", 
            "Kid Fears", 
            "Learned It on Me", 
            "Damo", 
            "Galileo"
        ], 
        "encore_set": [
            "Share the Moon", 
            "Closer to Fine"
        ]
    }, 
    "url": "http://www.lifeblood.net/appearances/2015/20150425.html"
}{
    "date": "2015-04-30", 
    "venue": "Heinz Hall For The Performing Arts", 
    "location": "Pittsburgh, Pennsylvania", 
    "setlist": null, 
    "url": null
}