{
    "date": "2015-05-09", 
    "venue": "Webster Hall", 
    "location": "New York, New York", 
    "setlist": {
        "regular_set": [
            "Get Out the Map", 
            "Shame on You", 
            "Power of Two", 
            "Go", 
            "Our Deliverance", 
            "Texas Was Clean", 
            "Elizabeth", 
            "Land of Canaan", 
            "Love of Our Lives", 
            "Sugar Tongue", 
            "The Wood Song", 
            "Devotion", 
            "Galileo"
        ], 
        "encore_set": [
            "Share the Moon", 
            "Closer to Fine"
        ]
    }, 
    "url": "http://www.lifeblood.net/appearances/2015/20150509.html"
}{
    "date": "2015-05-23", 
    "venue": "Tanglewood", 
    "location": "Lenox, Massachusetts", 
    "setlist": {
        "regular_set": [
            "Yield", 
            "Hammer and a Nail", 
            "Three Hits", 
            "Get Out the Map", 
            "Happy in the Sorrow Key", 
            "Learned It on Me", 
            "Go", 
            "The Wood Song", 
            "Three County Highway", 
            "Power of Two", 
            "Devotion", 
            "Love of Our Lives", 
            "Shame on You", 
            "Elizabeth", 
            "The Rise of the Black Messiah", 
            "Galileo", 
            "Land of Canaan"
        ], 
        "encore_set": [
            "Share the Moon", 
            "Closer to Fine"
        ]
    }, 
    "url": "http://www.lifeblood.net/appearances/2015/20150523.html"
}{
    "date": "2015-05-27", 
    "venue": null, 
    "location": "Monterey, California", 
    "setlist": null, 
    "url": null
}