{
    "date": "2015-06-17", 
    "venue": "Frederick Meijer Gardens", 
    "location": "Grand Rapids, Michigan", 
    "setlist": {
        "regular_set": [
            "Share the Moon", 
            "Get Out the Map", 
            "Southern California Is Your Girlfriend", 
            "Happy in the Sorrow Key", 
            "Language or the Kiss", 
            "Joking", 
            "Least Complicated", 
            "Ozilline", 
            "Findlay, Ohio 1968", 
            "Moment of Forgiveness", 
            "Lay My Head Down", 
            "Heartache for Everyone", 
            "Learned It on Me", 
            "Fishtails", 
            "Virginia Woolf", 
            "Shame on You", 
            "Elizabeth", 
            "Spread the Pain Around", 
            "Galileo", 
            "Go"
        ], 
        "encore_set": [
            "If I Don't Leave Here Now", 
            "The Rise of the Black Messiah", 
            "Closer to Fine"
        ]
    }, 
    "url": "http://www.lifeblood.net/appearances/2015/20150617.html"
}{
    "date": "2015-06-19", 
    "venue": "Hill Auditorium", 
    "location": "Ann Arbor, Michigan", 
    "setlist": {
        "regular_set": [
            "Share the Moon", 
            "Least Complicated", 
            "Heartache for Everyone", 
            "Language or the Kiss", 
            "Spread the Pain Around", 
            "Learned It on Me", 
            "Become You", 
            "Get Out the Map", 
            "Second Time Around", 
            "Come a Long Way", 
            "Go", 
            "If I Don't Leave Here Now", 
            "Happy in the Sorrow Key", 
            "Love of Our Lives", 
            "Moment of Forgiveness", 
            "Able to Sing", 
            "Texas Was Clean", 
            "Lay My Head Down", 
            "Shame on You", 
            "Galileo"
        ], 
        "encore_set": [
            "Ghost", 
            "Unknown", 
            "Closer to Fine"
        ]
    }, 
    "url": "http://www.lifeblood.net/appearances/2015/20150619.html"
}{
    "date": "2015-06-20", 
    "venue": "Schuster Performing Arts Center", 
    "location": "Dayton, Ohio", 
    "setlist": {
        "regular_set": [
            "Love of Our Lives", 
            "World Falls", 
            "Come a Long Way", 
            "Compromise", 
            "Virginia Woolf", 
            "Happy in the Sorrow Key", 
            "Able to Sing", 
            "Kid Fears", 
            "Galileo", 
            "Fugitive", 
            "The Wood Song", 
            "Yoke", 
            "Mystery", 
            "Chickenman", 
            "Ghost", 
            "Go", 
            "Closer to Fine"
        ], 
        "encore_set": []
    }, 
    "url": "http://www.lifeblood.net/appearances/2015/20150620.html"
}{
    "date": "2015-06-21", 
    "venue": null, 
    "location": null, 
    "setlist": {
        "regular_set": [
            "Yield", 
            "Least Complicated", 
            "Texas Was Clean", 
            "Learned It on Me", 
            "Ozilline", 
            "I'll Change", 
            "Go", 
            "Get Out the Map", 
            "Reunion", 
            "Elizabeth", 
            "Share the Moon", 
            "Pendulum Swinger", 
            "Happy in the Sorrow Key", 
            "Love of Our Lives", 
            "Shame on You"
        ], 
        "encore_set": [
            "Galileo"
        ]
    }, 
    "url": "http://www.lifeblood.net/appearances/2015/20150621.html"
}{
    "date": "2015-06-23", 
    "venue": "The Orange Peel", 
    "location": "Asheville, North Carolina", 
    "setlist": {
        "regular_set": [
            "Least Complicated", 
            "Heartache for Everyone", 
            "Get Out the Map", 
            "Spread the Pain Around", 
            "Southern California Is Your Girlfriend", 
            "Yield", 
            "Language or the Kiss", 
            "Joking", 
            "Learned It on Me", 
            "Share the Moon", 
            "Lay My Head Down", 
            "Ozilline", 
            "Pendulum Swinger", 
            "Happy in the Sorrow Key", 
            "Come a Long Way", 
            "Go", 
            "Power of Two", 
            "Shame on You", 
            "Elizabeth", 
            "Kid Fears", 
            "Galileo"
        ], 
        "encore_set": [
            "The Rise of the Black Messiah", 
            "Closer to Fine"
        ]
    }, 
    "url": "http://www.lifeblood.net/appearances/2015/20150623.html"
}{
    "date": "2015-06-24", 
    "venue": "Track 29", 
    "location": "Chattanooga, Tennessee", 
    "setlist": {
        "regular_set": [
            "Shame on You", 
            "Love of Our Lives", 
            "Moment of Forgiveness", 
            "The Wood Song", 
            "Olympia Inn", 
            "Alberta", 
            "Yield", 
            "Able to Sing", 
            "Heartache for Everyone", 
            "Come a Long Way", 
            "Spread the Pain Around", 
            "Get Out the Map", 
            "Devotion", 
            "Language or the Kiss", 
            "Reunion", 
            "Learned It on Me", 
            "Happy in the Sorrow Key", 
            "Power of Two", 
            "Share the Moon", 
            "Elizabeth", 
            "Faye Tucker", 
            "Galileo"
        ], 
        "encore_set": [
            "Fugitive", 
            "Closer to Fine"
        ]
    }, 
    "url": "http://www.lifeblood.net/appearances/2015/20150624.html"
}{
    "date": "2015-06-25", 
    "venue": "Saenger Theatre", 
    "location": "Mobile, Alabama", 
    "setlist": {
        "regular_set": [
            "Least Complicated", 
            "Ozilline", 
            "Power of Two", 
            "Happy in the Sorrow Key", 
            "Findlay, Ohio 1968", 
            "Three Hits", 
            "Get Out the Map", 
            "Heartache for Everyone", 
            "Learned It on Me", 
            "Spread the Pain Around", 
            "I'll Change", 
            "Go", 
            "Virginia Woolf", 
            "Yield", 
            "Come a Long Way", 
            "Fishtails", 
            "Southland in the Springtime", 
            "Shame on You", 
            "Southern California Is Your Girlfriend", 
            "Chickenman", 
            "Galileo"
        ], 
        "encore_set": [
            "Share the Moon", 
            "Closer to Fine"
        ]
    }, 
    "url": "http://www.lifeblood.net/appearances/2015/20150625.html"
}{
    "date": "2015-06-26", 
    "venue": "Chastain Park", 
    "location": "Atlanta, Georgia", 
    "setlist": {
        "regular_set": [
            "Power of Two", 
            "Ozilline", 
            "Least Complicated", 
            "Happy in the Sorrow Key", 
            "Learned It on Me", 
            "Moment of Forgiveness", 
            "Get Out the Map", 
            "Go", 
            "Language or the Kiss", 
            "Reunion", 
            "Come a Long Way", 
            "Fishtails", 
            "Love of Our Lives", 
            "Yield", 
            "Virginia Woolf", 
            "Spread the Pain Around", 
            "Elizabeth", 
            "Share the Moon", 
            "Southern California Is Your Girlfriend", 
            "Shame on You", 
            "Galileo"
        ], 
        "encore_set": [
            "The Rise of the Black Messiah", 
            "Closer to Fine"
        ]
    }, 
    "url": "http://www.lifeblood.net/appearances/2015/20150626.html"
}