{
    "date": "1990-06-10", 
    "venue": "Wfrg", 
    "location": "Atlanta, Georgia", 
    "setlist": {
        "regular_set": [
            "The Ballad of Squeaky Fromme", 
            "Hammer and a Nail", 
            "Hand Me Downs", 
            "Southland in the Springtime"
        ], 
        "encore_set": []
    }, 
    "url": "http://www.lifeblood.net/appearances/1990/19900610.html"
}