{
    "date": "1991-03-05", 
    "venue": "Gaillard Auditorium", 
    "location": "Charleston, South Carolina", 
    "setlist": null, 
    "url": null
}{
    "date": "1991-03-06", 
    "venue": "Township Auditorium", 
    "location": "Columbia, South Carolina", 
    "setlist": {
        "regular_set": [
            "Welcome Me", 
            "Love's Recovery", 
            "Hammer and a Nail", 
            "Hand Me Downs", 
            "Crazy Game", 
            "Pushing the Needle Too Far", 
            "Southland in the Springtime", 
            "Watershed", 
            "Land of Canaan", 
            "Prince of Darkness", 
            "Tried to Be True", 
            "You and Me of the 10,000 Wars", 
            "Kid Fears", 
            "Closer to Fine", 
            "Secure Yourself", 
            "Left Me a Fool", 
            "Free Fallin'"
        ], 
        "encore_set": []
    }, 
    "url": "http://www.lifeblood.net/appearances/1991/19910306.html"
}{
    "date": "1991-03-07", 
    "venue": "Smith Auditorium", 
    "location": "Lynchburg, Virginia", 
    "setlist": null, 
    "url": null
}{
    "date": "1991-03-08", 
    "venue": "Moore Auditorium", 
    "location": "Mars Hill, North Carolina", 
    "setlist": null, 
    "url": null
}{
    "date": "1991-03-11", 
    "venue": "Ovens Audtiorium", 
    "location": "Charlotte, North Carolina", 
    "setlist": {
        "regular_set": [
            "Welcome Me", 
            "World Falls", 
            "Love's Recovery", 
            "Hammer and a Nail", 
            "Hand Me Downs", 
            "Crazy Game", 
            "Pushing the Needle Too Far", 
            "Southland in the Springtime", 
            "Watershed", 
            "Land of Canaan", 
            "Tried to Be True", 
            "You and Me of the 10,000 Wars", 
            "Kid Fears", 
            "Closer to Fine", 
            "Secure Yourself", 
            "Left Me a Fool", 
            "Free Fallin'"
        ], 
        "encore_set": []
    }, 
    "url": "http://www.lifeblood.net/appearances/1991/19910311.html"
}{
    "date": "1991-03-12", 
    "venue": "Memorial Auditorium", 
    "location": "Raliegh, North Carolina", 
    "setlist": null, 
    "url": null
}{
    "date": "1991-03-13", 
    "venue": "Tennessee Theater", 
    "location": "Knoxville, Tennessee", 
    "setlist": null, 
    "url": null
}{
    "date": "1991-03-14", 
    "venue": "Hpe Building", 
    "location": "Carrolton, Georgia", 
    "setlist": {
        "regular_set": [
            "American Tune", 
            "Don't Think Twice It's All Right", 
            "The Water Is Wide", 
            "Welcome Me", 
            "World Falls", 
            "Love's Recovery", 
            "Hammer and a Nail", 
            "Hand Me Downs", 
            "Crazy Game", 
            "Pushing the Needle Too Far", 
            "Southland in the Springtime", 
            "Watershed", 
            "Land of Canaan", 
            "Prince of Darkness", 
            "Tried to Be True", 
            "You and Me of the 10,000 Wars", 
            "Kid Fears", 
            "Closer to Fine", 
            "Left Me a Fool", 
            "Sweet Chariot", 
            "Free Fallin'"
        ], 
        "encore_set": []
    }, 
    "url": "http://www.lifeblood.net/appearances/1991/19910314.html"
}{
    "date": "1991-03-15", 
    "venue": "Johnny Mercer Theater", 
    "location": "Savannah, Georgia", 
    "setlist": null, 
    "url": null
}{
    "date": "1991-03-16", 
    "venue": "Bell Auditorium", 
    "location": "Augusta, Georgia", 
    "setlist": {
        "regular_set": [
            "Finlandia", 
            "Don't Think Twice It's All Right", 
            "The Water Is Wide", 
            "Welcome Me", 
            "World Falls", 
            "Love's Recovery", 
            "Hammer and a Nail", 
            "Summertime", 
            "Southland in the Springtime", 
            "Watershed", 
            "Land of Canaan", 
            "Prince of Darkness", 
            "Tried to Be True", 
            "Tangled Up in Blue", 
            "You and Me of the 10,000 Wars", 
            "Kid Fears", 
            "Closer to Fine", 
            "Secure Yourself", 
            "I Shall Be Released"
        ], 
        "encore_set": []
    }, 
    "url": "http://www.lifeblood.net/appearances/1991/19910316.html"
}{
    "date": "1991-03-18", 
    "venue": "The Orpheum Theater", 
    "location": "Memphis, Tennessee", 
    "setlist": null, 
    "url": null
}{
    "date": "1991-03-19", 
    "venue": "City Auditorium", 
    "location": "Jackson, Mississippi", 
    "setlist": null, 
    "url": null
}{
    "date": "1991-03-20", 
    "venue": "Bayfront Auditorium", 
    "location": "Pensacola, Florida", 
    "setlist": null, 
    "url": null
}{
    "date": "1991-03-21", 
    "venue": "Musical Moon", 
    "location": "Tallahassee, Florida", 
    "setlist": null, 
    "url": null
}{
    "date": "1991-03-22", 
    "venue": "Three Arts Center", 
    "location": "Columbus, Georgia", 
    "setlist": null, 
    "url": null
}{
    "date": "1991-03-23", 
    "venue": null, 
    "location": "Macon, Georgia", 
    "setlist": null, 
    "url": null
}