{
    "date": "1991-08-10", 
    "venue": "Newport Folk Festival", 
    "location": "Newport, Rhode Island", 
    "setlist": {
        "regular_set": [
            "World Falls", 
            "Pushing the Needle Too Far", 
            "Crazy Game", 
            "Welcome Me", 
            "Hammer and a Nail", 
            "Love's Recovery", 
            "Land of Canaan", 
            "Summertime", 
            "Joking", 
            "Ghost", 
            "Kid Fears", 
            "Prince of Darkness", 
            "Watershed", 
            "Uncle John's Band"
        ], 
        "encore_set": []
    }, 
    "url": "http://www.lifeblood.net/appearances/1991/19910810.html"
}{
    "date": "1991-08-30", 
    "venue": "Rose Garden Amphitheater", 
    "location": "Portland, Oregon", 
    "setlist": null, 
    "url": null
}