{
    "date": "1991-10-05", 
    "venue": "Verde Valley School", 
    "location": "Sedona, Arizona", 
    "setlist": {
        "regular_set": [
            "Welcome Me", 
            "Secure Yourself", 
            "Love's Recovery", 
            "Hammer and a Nail", 
            "Pushing the Needle Too Far", 
            "Jonas and Ezekial", 
            "Closer to Fine", 
            "Prince of Darkness", 
            "Get Together"
        ], 
        "encore_set": []
    }, 
    "url": "http://www.lifeblood.net/appearances/1991/19911005.html"
}{
    "date": "1991-10-07", 
    "venue": "The Beacon Theater", 
    "location": "New York, New York", 
    "setlist": {
        "regular_set": [
            "Secure Yourself", 
            "Hammer and a Nail", 
            "Pushing the Needle Too Far", 
            "Love Will Come to You", 
            "Jonas and Ezekial", 
            "Closer to Fine", 
            "Kid Fears", 
            "Prince of Darkness", 
            "Get Together", 
            "Not Fade Away"
        ], 
        "encore_set": []
    }, 
    "url": "http://www.lifeblood.net/appearances/1991/19911007.html"
}{
    "date": "1991-10-25", 
    "venue": "Humanitas Benefit", 
    "location": "Berkeley, California", 
    "setlist": null, 
    "url": null
}{
    "date": "1991-10-29", 
    "venue": "The Roxy", 
    "location": "Atlanta, Georgia", 
    "setlist": {
        "regular_set": [
            "Welcome Me", 
            "Cedar Tree", 
            "Love Will Come to You", 
            "Jonas and Ezekial", 
            "Ghost", 
            "Nashville", 
            "Virginia Woolf", 
            "Romeo and Juliet", 
            "Galileo", 
            "Chickenman", 
            "Three Hits", 
            "Fare Thee Well", 
            "Joking", 
            "Love of the Common People"
        ], 
        "encore_set": []
    }, 
    "url": "http://www.lifeblood.net/appearances/1991/19911029.html"
}