{
    "date": "1992-08-10", 
    "venue": "Newport Folk Festival", 
    "location": "Newport, Rhode Island", 
    "setlist": null, 
    "url": null
}{
    "date": "1992-08-13", 
    "venue": "The Variety Playhouse", 
    "location": "Atlanta, Georgia", 
    "setlist": null, 
    "url": null
}{
    "date": "1992-08-14", 
    "venue": "Red Rocks", 
    "location": "Morrison, Colorado", 
    "setlist": null, 
    "url": null
}{
    "date": "1992-08-15", 
    "venue": "Red Rocks", 
    "location": "Morrison, Colorado", 
    "setlist": null, 
    "url": null
}{
    "date": "1992-08-17", 
    "venue": "Park West Amphitheater", 
    "location": "Park City, Utah", 
    "setlist": null, 
    "url": null
}{
    "date": "1992-08-19", 
    "venue": "The Orpheum Theater", 
    "location": "Vancouver, British Columbia", 
    "setlist": null, 
    "url": null
}{
    "date": "1992-08-20", 
    "venue": "The Pier", 
    "location": "Seattle, Washington", 
    "setlist": {
        "regular_set": [
            "Galileo", 
            "Three Hits", 
            "Ghost", 
            "Joking", 
            "Prince of Darkness", 
            "World Falls", 
            "Tried to Be True", 
            "Love Will Come to You", 
            "Jonas and Ezekial", 
            "Let It Be Me", 
            "Pushing the Needle Too Far", 
            "Virginia Woolf", 
            "Romeo and Juliet", 
            "History of Us", 
            "Chickenman", 
            "Watershed", 
            "Crazy Game", 
            "Kid Fears", 
            "Tangled Up in Blue", 
            "Closer to Fine", 
            "American Tune"
        ], 
        "encore_set": []
    }, 
    "url": "http://www.lifeblood.net/appearances/1992/19920820.html"
}{
    "date": "1992-08-21", 
    "venue": "Oaks Amusement Park", 
    "location": "Portland, Oregon", 
    "setlist": {
        "regular_set": [
            "Galileo", 
            "Three Hits", 
            "Ghost", 
            "Joking", 
            "Welcome Me", 
            "Hammer and a Nail", 
            "Love Will Come to You", 
            "Tried to Be True", 
            "Watershed", 
            "Jonas and Ezekial", 
            "Let It Be Me", 
            "Virginia Woolf", 
            "Romeo and Juliet", 
            "Fare Thee Well", 
            "Chickenman", 
            "Prince of Darkness", 
            "Kid Fears", 
            "Tangled Up in Blue"
        ], 
        "encore_set": []
    }, 
    "url": "http://www.lifeblood.net/appearances/1992/19920821.html"
}{
    "date": "1992-08-23", 
    "venue": "The Greek Theater", 
    "location": "Berkeley, California", 
    "setlist": null, 
    "url": null
}{
    "date": "1992-08-24", 
    "venue": "The Great American Music Hall", 
    "location": "San Francisco, California", 
    "setlist": {
        "regular_set": [
            "Cortez the Killer", 
            "Chickenman", 
            "Romeo and Juliet", 
            "Love Will Come to You", 
            "Let It Be Me", 
            "Freebird", 
            "Tangled Up in Blue", 
            "Danny's Song", 
            "The Night They Drove Old Dixie Down", 
            "Joking", 
            "The Weakness in Me", 
            "Galileo", 
            "Box of Tissues", 
            "Uncle Johns Band", 
            "Ghost", 
            "Down by the River", 
            "Bartender's Blues", 
            "Three Hits", 
            "Indigo Girls Live in San Francisco", 
            "Epic Cs Promo:", 
            "Fall 1992", 
            "***Rumoured***", 
            "Comes in a \"Rites of Passage\" Box,but Is a Standard White Label Promo", 
            "Time:", 
            "-------------------------------------------------------------", 
            "1 Land of Cannan", 
            "2 Hammer & Nail", 
            "3 Bartenders Blues", 
            "4 Three Hits", 
            "5 Freebird", 
            "6 Tangled Up in Blue", 
            "7 Welcome Me", 
            "8 Summertime", 
            "9 Danny's Song", 
            "10 Joking", 
            "11 the Weakness in Me", 
            "-", 
            "12 Galileo", 
            "13 the Night They Drove Old Dixie Down", 
            "14 Chickenman", 
            "15 Uncle John's Band", 
            "16 Ghost", 
            "17 Down by the River", 
            "18 Love of the Common People", 
            "19 Finlandia", 
            "+ With Joan Baez"
        ], 
        "encore_set": []
    }, 
    "url": "http://www.lifeblood.net/appearances/1992/19920824.html"
}{
    "date": "1992-08-25", 
    "venue": "County Bowl", 
    "location": "Santa Barbara, California", 
    "setlist": null, 
    "url": null
}{
    "date": "1992-08-26", 
    "venue": "The Greek Theater", 
    "location": "Los Angeles, California", 
    "setlist": null, 
    "url": null
}{
    "date": "1992-08-27", 
    "venue": "The Greek Theater", 
    "location": "Los Angeles, California", 
    "setlist": {
        "regular_set": [
            "Galileo", 
            "Three Hits", 
            "Ghost", 
            "Joking", 
            "Prince of Darkness", 
            "Pushing the Needle Too Far", 
            "Tangled Up in Blue", 
            "Love Will Come to You", 
            "Jonas and Ezekial", 
            "Let It Be Me", 
            "Virginia Woolf", 
            "Romeo and Juliet", 
            "History of Us", 
            "Kid Fears", 
            "Watershed"
        ], 
        "encore_set": []
    }, 
    "url": "http://www.lifeblood.net/appearances/1992/19920827.html"
}{
    "date": "1992-08-28", 
    "venue": null, 
    "location": "San Diego, California", 
    "setlist": null, 
    "url": null
}{
    "date": "1992-08-30", 
    "venue": "Cal Expo Auditorium", 
    "location": "Sacramento, California", 
    "setlist": {
        "regular_set": [
            "Galileo", 
            "Three Hits", 
            "Hammer and a Nail", 
            "Virginia Woolf", 
            "Joking", 
            "Tangled Up in Blue", 
            "Kid Fears", 
            "Let It Be Me", 
            "Chickenman", 
            "Down by the River", 
            "Closer to Fine"
        ], 
        "encore_set": []
    }, 
    "url": "http://www.lifeblood.net/appearances/1992/19920830.html"
}