{
    "date": "1994-07-01", 
    "venue": "Great Woods", 
    "location": "Mansfield, Massachusetts", 
    "setlist": {
        "regular_set": [
            "The Wood Song", 
            "Fugitive", 
            "Galileo", 
            "Dead Man's Hill", 
            "Power of Two", 
            "World Falls", 
            "Virginia Woolf", 
            "Reunion", 
            "Language or the Kiss", 
            "This Train Revised", 
            "Least Complicated", 
            "Center Stage", 
            "Ghost", 
            "Land of Canaan", 
            "Closer to Fine", 
            "Touch Me Fall", 
            "Southern Man", 
            "Chickenman", 
            "Mona Lisas and Mad Hatters"
        ], 
        "encore_set": []
    }, 
    "url": "http://www.lifeblood.net/appearances/1994/19940701.html"
}{
    "date": "1994-07-02", 
    "venue": null, 
    "location": null, 
    "setlist": {
        "regular_set": [
            "Dead Man's Hill", 
            "Least Complicated"
        ], 
        "encore_set": []
    }, 
    "url": "http://www.lifeblood.net/appearances/1994/19940702a.html"
}{
    "date": "1994-07-02", 
    "venue": "Yale University", 
    "location": "New Haven, Connecticut", 
    "setlist": {
        "regular_set": [
            "Secure Yourself", 
            "Fugitive", 
            "The Wood Song", 
            "Welcome Me", 
            "Galileo", 
            "Reunion", 
            "Mystery", 
            "Center Stage", 
            "Least Complicated", 
            "Dead Man's Hill", 
            "Power of Two", 
            "Joking", 
            "Ghost", 
            "This Train Revised", 
            "Watershed", 
            "Closer to Fine", 
            "Touch Me Fall", 
            "Summertime", 
            "Prince of Darkness"
        ], 
        "encore_set": []
    }, 
    "url": "http://www.lifeblood.net/appearances/1994/19940702.html"
}{
    "date": "1994-07-03", 
    "venue": "Stratton Mountain", 
    "location": "Stratton, Vermont", 
    "setlist": {
        "regular_set": [
            "The Wood Song", 
            "Fugitive", 
            "Galileo", 
            "Dead Man's Hill", 
            "Power of Two", 
            "World Falls", 
            "Virginia Woolf", 
            "Reunion", 
            "Language or the Kiss", 
            "This Train Revised", 
            "Least Complicated", 
            "Center Stage", 
            "Ghost", 
            "Land of Canaan", 
            "Closer to Fine", 
            "Touch Me Fall", 
            "Summertime", 
            "Chickenman"
        ], 
        "encore_set": []
    }, 
    "url": "http://www.lifeblood.net/appearances/1994/19940703.html"
}{
    "date": "1994-07-05", 
    "venue": "St. Denis Theatre", 
    "location": "Montreal, Canada", 
    "setlist": {
        "regular_set": [
            "Fugitive", 
            "Least Complicated", 
            "Dead Man's Hill", 
            "Galileo", 
            "Center Stage", 
            "The Wood Song", 
            "Reunion", 
            "Mystery", 
            "Joking", 
            "Power of Two", 
            "This Train Revised", 
            "Ghost", 
            "Kid Fears", 
            "Prince of Darkness", 
            "Language or the Kiss", 
            "Touch Me Fall", 
            "Closer to Fine"
        ], 
        "encore_set": []
    }, 
    "url": "http://www.lifeblood.net/appearances/1994/19940705.html"
}{
    "date": "1994-07-07", 
    "venue": "The Forum", 
    "location": "Toronto, Ontario", 
    "setlist": {
        "regular_set": [
            "The Wood Song", 
            "Fugitive", 
            "Galileo", 
            "Welcome Me", 
            "Power of Two", 
            "Secure Yourself", 
            "Virginia Woolf", 
            "Reunion", 
            "Mystery", 
            "This Train Revised", 
            "Least Complicated", 
            "Center Stage", 
            "Watershed", 
            "Land of Canaan", 
            "Closer to Fine", 
            "Language or the Kiss", 
            "Touch Me Fall", 
            "Chickenman"
        ], 
        "encore_set": []
    }, 
    "url": "http://www.lifeblood.net/appearances/1994/19940707.html"
}{
    "date": "1994-07-08", 
    "venue": "Nautica Stage", 
    "location": "Cleveland, Ohio", 
    "setlist": null, 
    "url": null
}{
    "date": "1994-07-09", 
    "venue": "Meadow Brook Music Festival", 
    "location": "Rochester, Minnesota", 
    "setlist": null, 
    "url": null
}{
    "date": "1994-07-10", 
    "venue": "Fraze Pavillion", 
    "location": "Kettering, Ohio", 
    "setlist": {
        "regular_set": [
            "Least Complicated", 
            "Reunion", 
            "Love's Recovery", 
            "Fugitive", 
            "The Wood Song", 
            "Jonas and Ezekial", 
            "Virginia Woolf", 
            "Joking", 
            "Power of Two", 
            "Dead Man's Hill", 
            "White House Blues", 
            "Galileo", 
            "This Train Revised", 
            "Watershed", 
            "Chickenman", 
            "Language or the Kiss", 
            "Touch Me Fall", 
            "Closer to Fine", 
            "Finlandia"
        ], 
        "encore_set": []
    }, 
    "url": "http://www.lifeblood.net/appearances/1994/19940710.html"
}{
    "date": "1994-07-12", 
    "venue": "Interlochen Center", 
    "location": "Interlocken, Minnesota", 
    "setlist": null, 
    "url": null
}{
    "date": "1994-07-13", 
    "venue": "Welsh Auditorium", 
    "location": "Grand Rapids, Michigan", 
    "setlist": null, 
    "url": null
}{
    "date": "1994-07-14", 
    "venue": "Riverside Theater", 
    "location": "Milwaukee, Wisconsin", 
    "setlist": {
        "regular_set": [
            "Strange Fire", 
            "The Wood Song", 
            "Joking", 
            "Language or the Kiss", 
            "Reunion", 
            "Power of Two", 
            "Fugitive", 
            "Galileo", 
            "Dead Man's Hill", 
            "Least Complicated", 
            "This Train Revised", 
            "Ghost", 
            "Land of Canaan", 
            "Chickenman", 
            "Love Will Come to You", 
            "Touch Me Fall", 
            "Closer to Fine"
        ], 
        "encore_set": []
    }, 
    "url": "http://www.lifeblood.net/appearances/1994/19940714.html"
}{
    "date": "1994-07-15", 
    "venue": "Madison Civic Center", 
    "location": "Madison, Wisconsin", 
    "setlist": null, 
    "url": null
}{
    "date": "1994-07-16", 
    "venue": "Riverside Theater", 
    "location": "Milwaukee, Wisconsin", 
    "setlist": {
        "regular_set": [
            "Summertime", 
            "Strange Fire", 
            "The Wood Song", 
            "Joking", 
            "Ghost", 
            "Reunion", 
            "Power of Two", 
            "Fugitive", 
            "Galileo", 
            "Dead Man's Hill", 
            "Least Complicated", 
            "This Train Revised", 
            "Language or the Kiss", 
            "Land of Canaan", 
            "15 .", 
            "Chickenman", 
            "Love Will Come to You", 
            "Touch Me Fall", 
            "Closer to Fine"
        ], 
        "encore_set": []
    }, 
    "url": "http://www.lifeblood.net/appearances/1994/19940716.html"
}{
    "date": "1994-07-17", 
    "venue": "Northrup Auditorium", 
    "location": "Minneapolis, Minnesota", 
    "setlist": {
        "regular_set": [
            "Peace Love and Understanding", 
            "Fugitive", 
            "The Wood Song", 
            "Three Hits", 
            "Power of Two", 
            "Reunion", 
            "Mystery", 
            "Land of Canaan", 
            "Least Complicated", 
            "Dead Man's Hill", 
            "This Train Revised", 
            "Love Will Come to You", 
            "Kid Fears", 
            "Galileo", 
            "Chickenman", 
            "Virginia Woolf", 
            "Touch Me Fall", 
            "Closer to Fine"
        ], 
        "encore_set": []
    }, 
    "url": "http://www.lifeblood.net/appearances/1994/19940717.html"
}{
    "date": "1994-07-19", 
    "venue": "Civic Center Theater", 
    "location": "Des Moines, Iowa", 
    "setlist": null, 
    "url": null
}{
    "date": "1994-07-20", 
    "venue": "Starlight Amphitheater", 
    "location": "Kansas City, Missouri", 
    "setlist": null, 
    "url": null
}{
    "date": "1994-07-21", 
    "venue": "Fox Theater", 
    "location": "St. Louis, Missouri", 
    "setlist": null, 
    "url": null
}{
    "date": "1994-07-23", 
    "venue": "Andrew Jackson Hall", 
    "location": "Nashville, Tennessee", 
    "setlist": null, 
    "url": null
}{
    "date": "1994-07-24", 
    "venue": "Chastain Park", 
    "location": "Atlanta, Georgia", 
    "setlist": {
        "regular_set": [
            "Strange Fire", 
            "The Wood Song", 
            "Welcome Me", 
            "Ghost", 
            "Reunion", 
            "Power of Two", 
            "Fugitive", 
            "Galileo", 
            "Land of Canaan", 
            "Mystery", 
            "Center Stage", 
            "Killing Time", 
            "Least Complicated", 
            "This Train Revised", 
            "Language or the Kiss", 
            "Prince of Darkness", 
            "Chickenman", 
            "Touch Me Fall", 
            "Closer to Fine", 
            "Finlandia"
        ], 
        "encore_set": []
    }, 
    "url": "http://www.lifeblood.net/appearances/1994/19940724.html"
}{
    "date": "1994-07-25", 
    "venue": "Chastain Park", 
    "location": "Atlanta, Georgia", 
    "setlist": {
        "regular_set": [
            "Fugitive", 
            "The Wood Song", 
            "Joking", 
            "You and Me of the 10,000 Wars", 
            "Jonas and Ezekial", 
            "Power of Two", 
            "Reunion", 
            "Galileo", 
            "World Falls", 
            "Least Complicated", 
            "This Train Revised", 
            "Mystery", 
            "Dead Man's Hill", 
            "Virginia Woolf", 
            "Chickenman", 
            "Southern Man", 
            "Touch Me Fall", 
            "Closer to Fine"
        ], 
        "encore_set": []
    }, 
    "url": "http://www.lifeblood.net/appearances/1994/19940725.html"
}