{
    "date": "1994-12-03", 
    "venue": "The Spectrum", 
    "location": "Philadelphia, Pennsylvania", 
    "setlist": {
        "regular_set": [
            "Fugitive", 
            "The Wood Song", 
            "Dead Man's Hill", 
            "Galileo", 
            "Reunion", 
            "Power of Two", 
            "Center Stage", 
            "Least Complicated", 
            "Nashville", 
            "Language or the Kiss", 
            "This Train Revised", 
            "Mystery", 
            "Pushing the Needle Too Far", 
            "Crazy Game", 
            "Chickenman", 
            "Virginia Woolf", 
            "Midnight Train to Georgia", 
            "Touch Me Fall", 
            "Closer to Fine"
        ], 
        "encore_set": []
    }, 
    "url": "http://www.lifeblood.net/appearances/1994/19941203.html"
}{
    "date": "1994-12-04", 
    "venue": "Barton Hall", 
    "location": "Ithica, New York", 
    "setlist": null, 
    "url": null
}{
    "date": "1994-12-05", 
    "venue": "Sound Fx", 
    "location": null, 
    "setlist": {
        "regular_set": [
            "Amy and Emily Were Guests on an Hour Long Program Which Included an Airing of The", 
            "Least Complicated", 
            "Video."
        ], 
        "encore_set": []
    }, 
    "url": "http://www.lifeblood.net/appearances/1994/19941205a.html"
}{
    "date": "1994-12-05", 
    "venue": "Madison Square Garden", 
    "location": "New York, New York", 
    "setlist": {
        "regular_set": [
            "Galileo", 
            "This Train Revised", 
            "Least Complicated", 
            "Chickenman", 
            "Closer to Fine", 
            "Kid Fears"
        ], 
        "encore_set": []
    }, 
    "url": "http://www.lifeblood.net/appearances/1994/19941205.html"
}{
    "date": "1994-12-06", 
    "venue": "The Beacon Theater", 
    "location": "New York, New York", 
    "setlist": {
        "regular_set": [
            "The Wood Song", 
            "Three Hits", 
            "Least Complicated", 
            "World Falls", 
            "Mystery", 
            "Reunion", 
            "Power of Two", 
            "Dead Man's Hill", 
            "This Train Revised", 
            "Galileo", 
            "Fugitive", 
            "Ghost", 
            "Touch Me Fall", 
            "Midnight Train to Georgia", 
            "Unknown", 
            "Welcome Me", 
            "Finlandia"
        ], 
        "encore_set": []
    }, 
    "url": "http://www.lifeblood.net/appearances/1994/19941206.html"
}{
    "date": "1994-12-08", 
    "venue": "Cumberland Civic Center", 
    "location": "Portland, Maine", 
    "setlist": {
        "regular_set": [
            "Rockin in the Free World", 
            "The Wood Song", 
            "Three Hits", 
            "Least Complicated", 
            "Fugitive", 
            "Power of Two", 
            "Dead Man's Hill", 
            "Watershed", 
            "Land of Canaan", 
            "Mystery", 
            "This Train Revised", 
            "Language or the Kiss", 
            "Chickenman", 
            "Crazy Game", 
            "Reunion", 
            "Galileo", 
            "Touch Me Fall", 
            "Love Will Come to You", 
            "Closer to Fine"
        ], 
        "encore_set": []
    }, 
    "url": "http://www.lifeblood.net/appearances/1994/19941208.html"
}{
    "date": "1994-12-09", 
    "venue": "Mullins Center", 
    "location": "Amherst, Massachusetts", 
    "setlist": {
        "regular_set": [
            "Rockin in the Free World", 
            "Fugitive", 
            "The Wood Song", 
            "Welcome Me", 
            "Let It Be Me", 
            "Reunion", 
            "Power of Two", 
            "Dead Man's Hill", 
            "Least Complicated", 
            "Joking", 
            "Mystery", 
            "This Train Revised", 
            "Virginia Woolf", 
            "Three Hits", 
            "Language or the Kiss", 
            "Galileo", 
            "Touch Me Fall", 
            "Cortez the Killer", 
            "Love's Recovery", 
            "Kid Fears", 
            "Closer to Fine"
        ], 
        "encore_set": []
    }, 
    "url": "http://www.lifeblood.net/appearances/1994/19941209.html"
}{
    "date": "1994-12-10", 
    "venue": "Brandeis University", 
    "location": "Waltham, Massachusetts", 
    "setlist": {
        "regular_set": [
            "Fugitive", 
            "The Wood Song", 
            "Three Hits", 
            "Least Complicated", 
            "Center Stage", 
            "Virginia Woolf", 
            "Reunion", 
            "Mystery", 
            "Dead Man's Hill", 
            "Let It Be Me", 
            "Hand Me Downs", 
            "Language or the Kiss", 
            "This Train Revised", 
            "Power of Two", 
            "Joking", 
            "Galileo", 
            "Love's Recovery", 
            "Rockin' in the Free World", 
            "Touch Me Fall", 
            "Closer to Fine"
        ], 
        "encore_set": []
    }, 
    "url": "http://www.lifeblood.net/appearances/1994/19941210.html"
}{
    "date": "1994-12-11", 
    "venue": "The Patriot Center", 
    "location": "Washington, D.c.", 
    "setlist": {
        "regular_set": [
            "Rockin in the Free World", 
            "Fugitive", 
            "The Wood Song", 
            "Three Hits", 
            "Least Complicated", 
            "Welcome Me", 
            "Virginia Woolf", 
            "Reunion", 
            "Mystery", 
            "Dead Man's Hill", 
            "Let It Be Me", 
            "Pushing the Needle Too Far", 
            "Language or the Kiss", 
            "This Train Revised", 
            "Power of Two", 
            "Joking", 
            "Galileo", 
            "Love's Recovery", 
            "Touch Me Fall", 
            "Closer to Fine"
        ], 
        "encore_set": []
    }, 
    "url": "http://www.lifeblood.net/appearances/1994/19941211.html"
}{
    "date": "1994-12-13", 
    "venue": "Chrylser Hall", 
    "location": "Norfolk, Virginia", 
    "setlist": {
        "regular_set": [
            "Rockin in the Free World", 
            "Fugitive", 
            "Let It Be Me", 
            "Power of Two", 
            "Watershed", 
            "Dead Man's Hill", 
            "World Falls", 
            "Reunion", 
            "Least Complicated", 
            "Three Hits", 
            "Mystery", 
            "Love's Recovery", 
            "The Wood Song", 
            "Kid Fears", 
            "Chickenman", 
            "This Train Revised", 
            "Galileo", 
            "Language or the Kiss", 
            "Touch Me Fall", 
            "Closer to Fine"
        ], 
        "encore_set": []
    }, 
    "url": "http://www.lifeblood.net/appearances/1994/19941213.html"
}{
    "date": "1994-12-14", 
    "venue": "Thomas Wolfe Auditorium", 
    "location": "Asheville, North Carolina", 
    "setlist": {
        "regular_set": [
            "Fugitive", 
            "The Wood Song", 
            "Welcome Me", 
            "Let It Be Me", 
            "Reunion", 
            "Power of Two", 
            "Dead Man's Hill", 
            "Least Complicated", 
            "Joking", 
            "Mystery", 
            "This Train Revised", 
            "Virginia Woolf", 
            "Three Hits", 
            "Language or the Kiss", 
            "Galileo", 
            "Touch Me Fall", 
            "Love's Recovery", 
            "Closer to Fine", 
            "Mona Lisas and Mad Hatters"
        ], 
        "encore_set": []
    }, 
    "url": "http://www.lifeblood.net/appearances/1994/19941214.html"
}{
    "date": "1994-12-16", 
    "venue": "Lawrence Cole Auditorium", 
    "location": "Winston Salem, North Carolina", 
    "setlist": {
        "regular_set": [
            "Virginia Woolf", 
            "Fugitive", 
            "The Wood Song", 
            "Least Complicated", 
            "Reunion", 
            "Mystery", 
            "Dead Man's Hill", 
            "Language or the Kiss", 
            "This Train Revised", 
            "Power of Two", 
            "Touch Me Fall", 
            "Chickenman", 
            "Love's Recovery", 
            "Ghost", 
            "Galileo", 
            "Pushing the Needle Too Far", 
            "Closer to Fine"
        ], 
        "encore_set": []
    }, 
    "url": "http://www.lifeblood.net/appearances/1994/19941216.html"
}{
    "date": "1994-12-17", 
    "venue": "Township Auditorium", 
    "location": "Columbia, South Carolina", 
    "setlist": {
        "regular_set": [
            "Rockin in the Free World", 
            "Fugitive", 
            "The Wood Song", 
            "Dead Man's Hill", 
            "Least Complicated", 
            "Three Hits", 
            "Power of Two", 
            "Joking", 
            "Language or the Kiss", 
            "This Train Revised", 
            "Reunion", 
            "Mystery", 
            "Crazy Game", 
            "Kid Fears", 
            "Galileo", 
            "Touch Me Fall", 
            "Cortez the Killer", 
            "Love's Recovery", 
            "Midnight Train to Georgia", 
            "Closer to Fine"
        ], 
        "encore_set": []
    }, 
    "url": "http://www.lifeblood.net/appearances/1994/19941217.html"
}{
    "date": "1994-12-19", 
    "venue": "Symphony Hall", 
    "location": "Atlanta, Georgia", 
    "setlist": {
        "regular_set": [
            "Rockin in the Free World", 
            "Fugitive", 
            "The Wood Song", 
            "Least Complicated", 
            "Reunion", 
            "Three Hits", 
            "Virginia Woolf", 
            "Mystery", 
            "Pushing the Needle Too Far", 
            "Power of Two", 
            "Language or the Kiss", 
            "Kid Fears", 
            "Love's Recovery", 
            "Dead Man's Hill", 
            "This Train Revised", 
            "Thin Line", 
            "Freebird", 
            "Touch Me Fall", 
            "Cortez the Killer", 
            "Midnight Train to Georgia", 
            "Closer to Fine", 
            "Mona Lisas and Mad Hatters"
        ], 
        "encore_set": []
    }, 
    "url": "http://www.lifeblood.net/appearances/1994/19941219.html"
}{
    "date": "1994-12-20", 
    "venue": "Symphony Hall", 
    "location": "Atlanta, Georgia", 
    "setlist": {
        "regular_set": [
            "Let It Be Me", 
            "Reunion", 
            "Least Complicated", 
            "Three Hits", 
            "Mystery", 
            "World Falls", 
            "Power of Two", 
            "Fugitive", 
            "Ghost", 
            "Thin Line", 
            "Dead Man's Hill", 
            "The Wood Song", 
            "Chickenman", 
            "Language or the Kiss", 
            "This Train Revised", 
            "Galileo", 
            "Midnight Train to Georgia", 
            "Touch Me Fall", 
            "Closer to Fine"
        ], 
        "encore_set": []
    }, 
    "url": "http://www.lifeblood.net/appearances/1994/19941220.html"
}{
    "date": "1994-12-21", 
    "venue": "Symphony Hall", 
    "location": "Atlanta, Georgia", 
    "setlist": {
        "regular_set": [
            "Welcome Me", 
            "The Wood Song", 
            "Joking", 
            "Mystery", 
            "Fugitive", 
            "Power of Two", 
            "Reunion", 
            "Love's Recovery", 
            "Thin Line", 
            "This Train Revised", 
            "Language or the Kiss", 
            "Dead Man's Hill", 
            "Least Complicated", 
            "Galileo", 
            "Kid Fears", 
            "The Water Is Wide", 
            "Midnight Train to Georgia"
        ], 
        "encore_set": []
    }, 
    "url": "http://www.lifeblood.net/appearances/1994/19941221.html"
}{
    "date": "1994-12-31", 
    "venue": "Rainy Day Records", 
    "location": "Atlanta, Georgia", 
    "setlist": {
        "regular_set": [
            "Three Hits", 
            "Duncan", 
            "Problem Child"
        ], 
        "encore_set": []
    }, 
    "url": "http://www.lifeblood.net/appearances/1994/19941231.html"
}