{
    "date": "1994-11-02", 
    "venue": "Paradiso", 
    "location": "Amsterdam, The Netherlands", 
    "setlist": null, 
    "url": null
}{
    "date": "1994-11-03", 
    "venue": "Tivoli", 
    "location": "Utrecht, Holland", 
    "setlist": null, 
    "url": null
}{
    "date": "1994-11-05", 
    "venue": "Tivoli", 
    "location": "Dublin, Ireland", 
    "setlist": null, 
    "url": null
}{
    "date": "1994-11-07", 
    "venue": "The Pyramids Centre", 
    "location": "Southsea, England", 
    "setlist": {
        "regular_set": [
            "The Wood Song", 
            "Three Hits", 
            "Power of Two", 
            "Land of Canaan", 
            "Least Complicated", 
            "Fugitive", 
            "Love Will Come to You", 
            "Reunion", 
            "Mystery", 
            "Welcome Me", 
            "Galileo", 
            "This Train Revised", 
            "Virginia Woolf", 
            "Chickenman"
        ], 
        "encore_set": [
            "Language or the Kiss", 
            "Touch Me Fall", 
            "Closer to Fine"
        ]
    }, 
    "url": "http://www.lifeblood.net/appearances/1994/19941107.html"
}{
    "date": "1994-11-08", 
    "venue": "The Waterfront", 
    "location": "Norwich, England", 
    "setlist": null, 
    "url": null
}{
    "date": "1994-11-09", 
    "venue": "The Corn Exchange", 
    "location": "Cambridge, England", 
    "setlist": {
        "regular_set": [
            "Fugitive", 
            "The Wood Song", 
            "Dead Man's Hill", 
            "Galileo", 
            "Reunion", 
            "Power of Two", 
            "Center Stage", 
            "Hammer and a Nail", 
            "This Train Revised", 
            "Least Complicated", 
            "Love Will Come to You", 
            "Chickenman", 
            "Mystery", 
            "Kid Fears"
        ], 
        "encore_set": [
            "Language or the Kiss", 
            "Touch Me Fall", 
            "Closer to Fine"
        ]
    }, 
    "url": "http://www.lifeblood.net/appearances/1994/19941109.html"
}{
    "date": "1994-11-10", 
    "venue": "The Irish Center", 
    "location": "Birmingham, England", 
    "setlist": {
        "regular_set": [
            "Joking", 
            "Power of Two", 
            "Reunion", 
            "Language or the Kiss", 
            "Fugitive", 
            "The Wood Song", 
            "Welcome Me", 
            "Least Complicated", 
            "Hand Me Downs", 
            "Virginia Woolf", 
            "This Train Revised", 
            "Mystery", 
            "Galileo", 
            "Touch Me Fall"
        ], 
        "encore_set": []
    }, 
    "url": "http://www.lifeblood.net/appearances/1994/19941110.html"
}{
    "date": "1994-11-12", 
    "venue": "Victoria Rooms", 
    "location": "Bristol, England", 
    "setlist": {
        "regular_set": [
            "Fugitive", 
            "Power of Two", 
            "Three Hits", 
            "Least Complicated", 
            "Land of Canaan", 
            "Language or the Kiss", 
            "Reunion", 
            "Galileo", 
            "Dead Man's Hill", 
            "Hammer and a Nail", 
            "This Train Revised", 
            "The Wood Song", 
            "Touch Me Fall"
        ], 
        "encore_set": [
            "Virginia Woolf", 
            "Midnight Train to Georgia", 
            "Closer to Fine"
        ]
    }, 
    "url": "http://www.lifeblood.net/appearances/1994/19941112.html"
}{
    "date": "1994-11-13", 
    "venue": "Leicester Arena", 
    "location": "Leicester, England", 
    "setlist": {
        "regular_set": [
            "Joking", 
            "The Wood Song", 
            "Fugitive", 
            "Power of Two", 
            "Center Stage", 
            "Least Complicated", 
            "Reunion", 
            "Language or the Kiss", 
            "This Train Revised", 
            "Watershed", 
            "Chickenman", 
            "Galileo", 
            "Touch Me Fall"
        ], 
        "encore_set": [
            "Mystery", 
            "Midnight Train to Georgia", 
            "Closer to Fine"
        ]
    }, 
    "url": "http://www.lifeblood.net/appearances/1994/19941113.html"
}{
    "date": "1994-11-14", 
    "venue": "Rock City", 
    "location": "Nottingham, England", 
    "setlist": null, 
    "url": null
}{
    "date": "1994-11-15", 
    "venue": "The Leadmill", 
    "location": "Sheffield, England", 
    "setlist": null, 
    "url": null
}{
    "date": "1994-11-17", 
    "venue": "Town And Country Club", 
    "location": "Leeds, England", 
    "setlist": null, 
    "url": null
}{
    "date": "1994-11-18", 
    "venue": "Queens Hall", 
    "location": "Edinburgh, Scotland", 
    "setlist": {
        "regular_set": [
            "Galileo", 
            "Reunion", 
            "Power of Two", 
            "Dead Man's Hill", 
            "The Wood Song", 
            "Fugitive", 
            "Ghost", 
            "Land of Canaan", 
            "Mystery", 
            "This Train Revised", 
            "Least Complicated", 
            "Least Complicated", 
            "Crazy Game", 
            "Touch Me Fall"
        ], 
        "encore_set": [
            "Watershed", 
            "Midnight Train to Georgia", 
            "Closer to Fine"
        ]
    }, 
    "url": "http://www.lifeblood.net/appearances/1994/19941118.html"
}{
    "date": "1994-11-20", 
    "venue": "The Academy", 
    "location": "Manchester, England", 
    "setlist": {
        "regular_set": [
            "The Wood Song", 
            "Three Hits", 
            "Power of Two", 
            "Fugitive", 
            "Hammer and a Nail", 
            "Dead Man's Hill", 
            "Language or the Kiss", 
            "Reunion", 
            "Virginia Woolf", 
            "This Train Revised", 
            "Least Complicated", 
            "Center Stage", 
            "Galileo", 
            "Touch Me Fall", 
            "Love's Recovery", 
            "Closer to Fine", 
            "Midnight Train to Georgia", 
            "Ghost"
        ], 
        "encore_set": []
    }, 
    "url": "http://www.lifeblood.net/appearances/1994/19941120.html"
}{
    "date": "1994-11-21", 
    "venue": "Sheperd's Bush Empire", 
    "location": "London, England", 
    "setlist": {
        "regular_set": [
            "The Wood Song", 
            "Three Hits", 
            "Least Complicated", 
            "Dead Man's Hill", 
            "Power of Two", 
            "Land of Canaan", 
            "Language or the Kiss", 
            "Fugitive", 
            "Virginia Woolf", 
            "Reunion", 
            "Watershed", 
            "This Train Revised", 
            "Mystery", 
            "Galileo", 
            "Touch Me Fall"
        ], 
        "encore_set": [
            "Love's Recovery", 
            "Midnight Train to Georgia", 
            "Closer to Fine"
        ]
    }, 
    "url": "http://www.lifeblood.net/appearances/1994/19941121.html"
}{
    "date": "1994-11-22", 
    "venue": "Sheperd's Bush Empire", 
    "location": "London, England", 
    "setlist": {
        "regular_set": [
            "Fugitive", 
            "The Wood Song", 
            "Dead Man's Hill", 
            "Galileo", 
            "Reunion", 
            "Power of Two", 
            "Center Stage", 
            "Hammer and a Nail", 
            "Three Hits", 
            "Love's Recovery", 
            "This Train Revised", 
            "Least Complicated", 
            "Ghost", 
            "Chickenman", 
            "Mystery", 
            "Kid Fears"
        ], 
        "encore_set": [
            "Language or the Kiss", 
            "Midnight Train to Georgia", 
            "Touch Me Fall", 
            "Closer to Fine", 
            "Power of Two", 
            "Fugitive", 
            "Strange Fire"
        ]
    }, 
    "url": "http://www.lifeblood.net/appearances/1994/19941122.html"
}{
    "date": "1994-11-26", 
    "venue": "The Variety Playhouse", 
    "location": "Atlanta, Georgia", 
    "setlist": {
        "regular_set": [], 
        "encore_set": []
    }, 
    "url": "http://www.lifeblood.net/appearances/1994/19941126.html"
}{
    "date": "1994-11-27", 
    "venue": "The Variety Playhouse", 
    "location": "Atlanta, Georgia", 
    "setlist": {
        "regular_set": [], 
        "encore_set": []
    }, 
    "url": "http://www.lifeblood.net/appearances/1994/19941127.html"
}