{
    "date": "1996-08-04", 
    "venue": null, 
    "location": "Decatur, Georgia", 
    "setlist": {
        "regular_set": [
            "It's Alright", 
            "Caramia", 
            "Southland in the Springtime", 
            "All I Can Give You Is Me", 
            "Wild Horses", 
            "Closer to Fine", 
            "Ghost"
        ], 
        "encore_set": []
    }, 
    "url": "http://www.lifeblood.net/appearances/1996/19960804.html"
}{
    "date": "1996-08-11", 
    "venue": "Newport Folk Festival", 
    "location": "Newport, Rhode Island", 
    "setlist": {
        "regular_set": [
            "Least Complicated", 
            "Don't Give That Girl a Gun", 
            "Get Out the Map", 
            "Tried to Be True", 
            "Wild Horses", 
            "Bury My Heart at Wounded Knee", 
            "The Edge", 
            "Shame on You", 
            "Winthrop", 
            "Hey Kind Friend", 
            "It's Alright", 
            "Chiapas Bound", 
            "I Don't Wanna Know", 
            "Galileo", 
            "Down by the River", 
            "Closer to Fine"
        ], 
        "encore_set": []
    }, 
    "url": "http://www.lifeblood.net/appearances/1996/19960811.html"
}{
    "date": "1996-08-12", 
    "venue": "Club Casino", 
    "location": "Hampton Beach, New Hampshire", 
    "setlist": {
        "regular_set": [
            "Welcome Me", 
            "The Wood Song", 
            "Hey Kind Friend", 
            "Least Complicated", 
            "Don't Give That Girl a Gun", 
            "It's Alright", 
            "Winthrop", 
            "I Don't Wanna Know", 
            "Galileo", 
            "Chiapas Bound", 
            "Get Out the Map", 
            "Tried to Be True", 
            "Leeds", 
            "Cut It Out", 
            "Blood Quantum", 
            "Closer to Fine", 
            "Kid Fears"
        ], 
        "encore_set": [
            "Wild Horses", 
            "Shame on You", 
            "Ghost"
        ]
    }, 
    "url": "http://www.lifeblood.net/appearances/1996/19960812.html"
}{
    "date": "1996-08-14", 
    "venue": "Roseland", 
    "location": "New York, New York", 
    "setlist": {
        "regular_set": [
            "Reunion", 
            "Hammer and a Nail", 
            "Don't Give That Girl a Gun", 
            "Get Out the Map", 
            "Hey Kind Friend", 
            "Galileo", 
            "Hand Me Downs", 
            "Leeds", 
            "I Don't Wanna Know", 
            "Wild Horses", 
            "It's Alright", 
            "Chiapas Bound", 
            "Tried to Be True", 
            "Shame on You", 
            "Winthrop", 
            "Least Complicated", 
            "Crimson and Clover", 
            "Cut It Out", 
            "Closer to Fine", 
            "Kid Fears"
        ], 
        "encore_set": []
    }, 
    "url": "http://www.lifeblood.net/appearances/1996/19960814.html"
}{
    "date": "1996-08-15", 
    "venue": "The Electric Factory", 
    "location": "Philadelphia, Pennsylvania", 
    "setlist": {
        "regular_set": [
            "Least Complicated", 
            "Three Hits", 
            "Get Out the Map", 
            "Don't Give That Girl a Gun", 
            "I Don't Wanna Know", 
            "Leeds", 
            "It's Alright", 
            "Tried to Be True", 
            "Prince of Darkness", 
            "Chiapas Bound", 
            "Ghost", 
            "Cut It Out", 
            "Winthrop", 
            "Chickenman", 
            "Wild Horses", 
            "Galileo", 
            "Hey Kind Friend", 
            "Shame on You", 
            "Closer to Fine"
        ], 
        "encore_set": []
    }, 
    "url": "http://www.lifeblood.net/appearances/1996/19960815.html"
}{
    "date": "1996-08-16", 
    "venue": "Artpark", 
    "location": "Lewiston, New York", 
    "setlist": {
        "regular_set": [
            "Reunion", 
            "The Wood Song", 
            "Don't Give That Girl a Gun", 
            "Get Out the Map", 
            "Chickenman", 
            "Galileo", 
            "Winthrop", 
            "I Don't Wanna Know", 
            "Tried to Be True", 
            "It's Alright", 
            "Cut It Out", 
            "Wild Horses", 
            "Leeds", 
            "Shame on You", 
            "Chiapas Bound", 
            "Least Complicated"
        ], 
        "encore_set": [
            "Hey Kind Friend", 
            "Mystery", 
            "Closer to Fine"
        ]
    }, 
    "url": "http://www.lifeblood.net/appearances/1996/19960816.html"
}{
    "date": "1996-08-17", 
    "venue": "The Boathouse", 
    "location": "Norfolk, Virginia", 
    "setlist": {
        "regular_set": [
            "Don't Give That Girl a Gun", 
            "Least Complicated", 
            "Get Out the Map", 
            "Hand Me Downs", 
            "Everything in Its Own Time", 
            "I Don't Wanna Know", 
            "Cut It Out", 
            "Leeds", 
            "Tried to Be True", 
            "It's Alright", 
            "Hey Kind Friend", 
            "The Wood Song", 
            "Reunion", 
            "Chiapas Bound", 
            "Winthrop", 
            "Galileo", 
            "Kumbayah", 
            "Wild Horses", 
            "Shame on You", 
            "Closer to Fine"
        ], 
        "encore_set": []
    }, 
    "url": "http://www.lifeblood.net/appearances/1996/19960817.html"
}{
    "date": "1996-08-18", 
    "venue": "Rock For Aids", 
    "location": "Atlanta, Georgia", 
    "setlist": {
        "regular_set": [
            "It's Alright", 
            "Ghost", 
            "It's All Right", 
            "Fade Away Blind", 
            "Comming Up Close", 
            "All I Can Give You Is Me", 
            "Closer to Fine"
        ], 
        "encore_set": []
    }, 
    "url": "http://www.lifeblood.net/appearances/1996/19960818.html"
}{
    "date": "1996-08-20", 
    "venue": "The Backyard", 
    "location": "Austin, Texas", 
    "setlist": null, 
    "url": null
}{
    "date": "1996-08-21", 
    "venue": "The White Rabbit", 
    "location": "San Antonio, Texas", 
    "setlist": null, 
    "url": null
}{
    "date": "1996-08-22", 
    "venue": "The Bronco Bowl", 
    "location": "Dallas, Texas", 
    "setlist": null, 
    "url": null
}{
    "date": "1996-08-24", 
    "venue": null, 
    "location": "Las Cruces, New Mexico", 
    "setlist": {
        "regular_set": [
            "Hand Me Downs", 
            "It's Alright", 
            "Hey Kind Friend", 
            "Get Out the Map", 
            "Tried to Be True", 
            "Winthrop", 
            "Don't Give That Girl a Gun", 
            "Everything in Its Own Time", 
            "Bury My Heart at Wounded Knee", 
            "Caramia", 
            "Chiapas Bound", 
            "Ghost", 
            "Cut It Out", 
            "Reunion", 
            "Galileo", 
            "Shame on You", 
            "Closer to Fine"
        ], 
        "encore_set": []
    }, 
    "url": "http://www.lifeblood.net/appearances/1996/19960824.html"
}{
    "date": "1996-08-25", 
    "venue": "Paolo Solieri", 
    "location": "Santa Fe, New Mexico", 
    "setlist": {
        "regular_set": [
            "Three Hits", 
            "The Wood Song", 
            "Don't Give That Girl a Gun", 
            "It's Alright", 
            "Blood Quantum", 
            "Get Out the Map", 
            "Tried to Be True", 
            "Leeds", 
            "Prince of Darkness", 
            "Cut It Out", 
            "Chiapas Bound", 
            "Bury My Heart at Wounded Knee", 
            "Least Complicated", 
            "Everything in Its Own Time", 
            "Kid Fears", 
            "Shame on You", 
            "Winthrop", 
            "Closer to Fine"
        ], 
        "encore_set": []
    }, 
    "url": "http://www.lifeblood.net/appearances/1996/19960825.html"
}{
    "date": "1996-08-26", 
    "venue": "Mesa Amphitheater", 
    "location": "Mesa, Arizona", 
    "setlist": {
        "regular_set": [
            "Three Hits", 
            "Least Complicated", 
            "Don't Give That Girl a Gun", 
            "Get Out the Map", 
            "Tried to Be True", 
            "Leeds", 
            "Hey Kind Friend", 
            "Caramia", 
            "Bury My Heart at Wounded Knee", 
            "It's Alright", 
            "Reunion", 
            "Winthrop", 
            "Cut It Out", 
            "Chiapas Bound", 
            "Prince of Darkness", 
            "Everything in Its Own Time", 
            "Chickenman", 
            "Galileo", 
            "Blood Quantum", 
            "Shame on You", 
            "Closer to Fine"
        ], 
        "encore_set": []
    }, 
    "url": "http://www.lifeblood.net/appearances/1996/19960826.html"
}{
    "date": "1996-08-31", 
    "venue": "Bumbershoot", 
    "location": "Seattle, Washington", 
    "setlist": {
        "regular_set": [
            "Reunion", 
            "Least Complicated", 
            "Don't Give That Girl a Gun", 
            "Prince of Darkness", 
            "Get Out the Map", 
            "Cut It Out", 
            "Leeds", 
            "Tried to Be True", 
            "Kid Fears", 
            "Hey Kind Friend", 
            "It's Alright", 
            "The Wood Song", 
            "Winthrop", 
            "Chickenman", 
            "Galileo", 
            "Shame on You", 
            "Closer to Fine"
        ], 
        "encore_set": []
    }, 
    "url": "http://www.lifeblood.net/appearances/1996/19960831.html"
}