{
    "date": "1997-11-01", 
    "venue": "Stanley Arts Center", 
    "location": "Utica, New York", 
    "setlist": {
        "regular_set": [
            "Galileo", 
            "Tried to Be True", 
            "Get Out the Map", 
            "Three Hits", 
            "Everything in Its Own Time", 
            "Shame on You", 
            "Least Complicated", 
            "Don't Give That Girl a Gun", 
            "Mystery", 
            "Shed Your Skin", 
            "Leeds", 
            "Hey Kind Friend", 
            "Scooter Boys", 
            "Virginia Woolf", 
            "Chickenman", 
            "Kid Fears", 
            "Bury My Heart at Wounded Knee", 
            "Closer to Fine"
        ], 
        "encore_set": []
    }, 
    "url": "http://www.lifeblood.net/appearances/1997/19971101.html"
}{
    "date": "1997-11-02", 
    "venue": "Kuhl Gym", 
    "location": "Geneseo, New York", 
    "setlist": {
        "regular_set": [
            "Joking", 
            "It's Alright", 
            "Shame on You", 
            "Get Out the Map", 
            "Don't Give That Girl a Gun", 
            "Power of Two", 
            "Land of Canaan", 
            "Ghost", 
            "Scooter Boys", 
            "Least Complicated", 
            "Shed Your Skin", 
            "Leeds", 
            "Cut It Out", 
            "Down by the River", 
            "Galileo", 
            "Tangled Up in Blue", 
            "Romeo and Juliet", 
            "Bury My Heart at Wounded Knee", 
            "Closer to Fine"
        ], 
        "encore_set": []
    }, 
    "url": "http://www.lifeblood.net/appearances/1997/19971102.html"
}{
    "date": "1997-11-03", 
    "venue": "Field House", 
    "location": "Geneva, New York", 
    "setlist": {
        "regular_set": [
            "Thin Line", 
            "Mystery", 
            "Shame on You", 
            "Galileo", 
            "Hand Me Downs", 
            "Love's Recovery", 
            "Scooter Boys", 
            "Least Complicated", 
            "Three Hits", 
            "Get Out the Map", 
            "Shed Your Skin", 
            "Leeds", 
            "Kid Fears", 
            "Hammer and a Nail", 
            "Chickenman", 
            "Ghost", 
            "Bury My Heart at Wounded Knee", 
            "Closer to Fine"
        ], 
        "encore_set": []
    }, 
    "url": "http://www.lifeblood.net/appearances/1997/19971103.html"
}{
    "date": "1997-11-04", 
    "venue": "Cultural Center", 
    "location": "Charleston, West Virginia", 
    "setlist": {
        "regular_set": [
            "Get Out the Map", 
            "Power of Two", 
            "Everything in Its Own Time", 
            "Shame on You", 
            "Don't Give That Girl a Gun", 
            "Chickenman", 
            "Hey Kind Friend", 
            "Galileo", 
            "Closer to Fine", 
            "Let the Good Times Roll"
        ], 
        "encore_set": []
    }, 
    "url": "http://www.lifeblood.net/appearances/1997/19971104.html"
}{
    "date": "1997-11-11", 
    "venue": "Charis Bookshop In Little Five Points", 
    "location": "Atlanta, Georgia", 
    "setlist": null, 
    "url": null
}{
    "date": "1997-11-14", 
    "venue": "Hill Auditorium", 
    "location": "Ann Arbor, Michigan", 
    "setlist": {
        "regular_set": [
            "Three Hits", 
            "It's Alright", 
            "Shame on You", 
            "Get Out the Map", 
            "Don't Give That Girl a Gun", 
            "Least Complicated", 
            "Shed Your Skin", 
            "Love Will Come to You", 
            "Tried to Be True", 
            "Power of Two", 
            "Scooter Boys", 
            "Leeds", 
            "Romeo and Juliet", 
            "Chickenman", 
            "Galileo"
        ], 
        "encore_set": [
            "Hey Kind Friend", 
            "Box of Tissues", 
            "Closer to Fine"
        ]
    }, 
    "url": "http://www.lifeblood.net/appearances/1997/19971114.html"
}{
    "date": "1997-11-15", 
    "venue": "University Of Dayton", 
    "location": "Dayton, Ohio", 
    "setlist": {
        "regular_set": [
            "Tangled Up in Blue", 
            "Three Hits", 
            "Galileo", 
            "Land of Canaan", 
            "Everything in Its Own Time", 
            "Shed Your Skin", 
            "Get Out the Map", 
            "Pushing the Needle Too Far", 
            "Redemption Song", 
            "Ghost", 
            "Chickenman", 
            "It's Alright", 
            "Leeds", 
            "Scooter Boys", 
            "Least Complicated", 
            "Shame on You"
        ], 
        "encore_set": [
            "Thin Line", 
            "Romeo and Juliet", 
            "Closer to Fine"
        ]
    }, 
    "url": "http://www.lifeblood.net/appearances/1997/19971115.html"
}{
    "date": "1997-11-16", 
    "venue": "The Rosemont Theatre", 
    "location": "Chicago, Illinois", 
    "setlist": {
        "regular_set": [
            "Shame on You", 
            "Least Complicated", 
            "Three Hits", 
            "Power of Two", 
            "Don't Give That Girl a Gun", 
            "Get Out the Map", 
            "Shed Your Skin", 
            "Love Will Come to You", 
            "Tried to Be True", 
            "Help Me Make It Through the Night", 
            "Scooter Boys", 
            "It's Alright", 
            "Leeds", 
            "Chickenman", 
            "Galileo", 
            "Hey Kind Friend", 
            "Here I Am", 
            "Closer to Fine"
        ], 
        "encore_set": []
    }, 
    "url": "http://www.lifeblood.net/appearances/1997/19971116.html"
}{
    "date": "1997-11-17", 
    "venue": "The Rosemont Theatre", 
    "location": "Chicago, Illinois", 
    "setlist": {
        "regular_set": [
            "Secure Yourself", 
            "Galileo", 
            "Land of Cannan", 
            "Caramia", 
            "Shame on You", 
            "Hammer and a Nail", 
            "Scooter Boys", 
            "Tangled Up in Blue", 
            "Help Me Make It Through the Night", 
            "Get Out the Map", 
            "Shed Your Skin", 
            "Leeds", 
            "Cut It Out", 
            "Down by the River", 
            "Least Complicated", 
            "Here I Am", 
            "Chickenman", 
            "Closer to Fine"
        ], 
        "encore_set": []
    }, 
    "url": "http://www.lifeblood.net/appearances/1997/19971117.html"
}{
    "date": "1997-11-19", 
    "venue": "Northrup Auditorium", 
    "location": "Minneapolis, Minnesota", 
    "setlist": {
        "regular_set": [
            "Three Hits", 
            "Least Complicated", 
            "Tried to Be True", 
            "Power of Two", 
            "Shame on You", 
            "Shed Your Skin", 
            "Get Out the Map", 
            "Thin Line", 
            "Fall From Grace", 
            "Cut It Out", 
            "Land of Canaan", 
            "Leeds", 
            "It's Alright", 
            "Scooter Boys", 
            "Galileo", 
            "Romeo and Juliet", 
            "Chickenman", 
            "Closer to Fine"
        ], 
        "encore_set": []
    }, 
    "url": "http://www.lifeblood.net/appearances/1997/19971119.html"
}{
    "date": "1997-11-20", 
    "venue": "The Oscar Meyer Theatre", 
    "location": "Madison, Wisconsin", 
    "setlist": {
        "regular_set": [
            "Tangled Up in Blue", 
            "Reunion", 
            "Galileo", 
            "Don't Give That Girl a Gun", 
            "Its Alright", 
            "Shame on You", 
            "Ghost", 
            "Shed Your Skin", 
            "Least Complicated", 
            "Pushing the Needle Too Far", 
            "Redemption Song", 
            "Get Out the Map", 
            "Scooter Boys", 
            "Leeds", 
            "Kid Fears", 
            "Chickenman", 
            "Watershed", 
            "Acadian Driftwood", 
            "Closer to Fine"
        ], 
        "encore_set": []
    }, 
    "url": "http://www.lifeblood.net/appearances/1997/19971120.html"
}{
    "date": "1997-11-22", 
    "venue": "The Fox Theatre", 
    "location": "St. Louis, Missouri", 
    "setlist": {
        "regular_set": [
            "Thin Line", 
            "Least Complicated", 
            "Tried to Be True", 
            "Get Out the Map", 
            "Shed Your Skin", 
            "You and Me of the 10,000 Wars", 
            "Chickenman", 
            "Let It Be Me", 
            "Hey Kind Friend", 
            "Romeo and Juliet", 
            "Leeds", 
            "Scooter Boys", 
            "Tangled Up in Blue", 
            "Shame on You", 
            "Galileo", 
            "Land of Canaan", 
            "Unknown", 
            "Acadian Driftwood", 
            "Closer to Fine"
        ], 
        "encore_set": []
    }, 
    "url": "http://www.lifeblood.net/appearances/1997/19971122.html"
}{
    "date": "1997-11-23", 
    "venue": "Central Missouri State", 
    "location": "Warrensburg, Missouri", 
    "setlist": {
        "regular_set": [
            "Least Complicated", 
            "Three Hits", 
            "Get Out the Map", 
            "Shed Your Skin", 
            "Ghost", 
            "Tried to Be True", 
            "It's Alright", 
            "Don't Give That Girl a Gun", 
            "Tangled Up in Blue", 
            "Joking", 
            "Leeds", 
            "Scooter Boys", 
            "Hammer and a Nail", 
            "Shame on You", 
            "Galileo", 
            "Romeo and Juliet", 
            "Acadian Driftwood", 
            "Closer to Fine"
        ], 
        "encore_set": []
    }, 
    "url": "http://www.lifeblood.net/appearances/1997/19971123.html"
}{
    "date": "1997-11-25", 
    "venue": "The Fox Theatre", 
    "location": "Atlanta, Georgia", 
    "setlist": {
        "regular_set": [
            "Three Hits", 
            "Least Complicated", 
            "Southland in the Springtime", 
            "Shame on You", 
            "Thin Line", 
            "Get Out the Map", 
            "Don't Give That Girl a Gun", 
            "Let It Be Me", 
            "Shed Your Skin", 
            "Can't Find My Way Home", 
            "Tried to Be True", 
            "Power of Two", 
            "Romeo and Juliet", 
            "Leeds", 
            "Scooter Boys", 
            "Galileo", 
            "Wild Horses", 
            "Chickenman", 
            "Closer to Fine"
        ], 
        "encore_set": []
    }, 
    "url": "http://www.lifeblood.net/appearances/1997/19971125.html"
}{
    "date": "1997-11-26", 
    "venue": "The Fox Theatre", 
    "location": "Atlanta, Georgia", 
    "setlist": {
        "regular_set": [
            "Tangled Up in Blue", 
            "Shame on You", 
            "It's Alright", 
            "Land of Canaan", 
            "Ghost", 
            "Thin Line", 
            "Get Out the Map", 
            "Don't Give That Girl a Gun", 
            "Least Complicated", 
            "Shed Your Skin", 
            "Can't Find My Way Home", 
            "Scooter Boys", 
            "Hey Kind Friend", 
            "Bury My Heart at Wounded Knee", 
            "Chickenman", 
            "Galileo", 
            "Southland in the Springtime", 
            "Acadian Driftwood", 
            "Closer to Fine"
        ], 
        "encore_set": []
    }, 
    "url": "http://www.lifeblood.net/appearances/1997/19971126.html"
}{
    "date": "1997-11-29", 
    "venue": "The House Of Blues", 
    "location": "Lake Buena Vista, Florida", 
    "setlist": {
        "regular_set": [
            "Least Complicated", 
            "Three Hits", 
            "Get Out the Map", 
            "Unknown", 
            "Tried to Be True", 
            "Everything in Its Own Time", 
            "Shame on You", 
            "It's Alright", 
            "Reunion", 
            "Power of Two", 
            "Cut It Out", 
            "Down by the River", 
            "Leeds", 
            "Chickenman", 
            "Hammer and a Nail", 
            "Shed Your Skin", 
            "Galileo", 
            "Scooter Boys", 
            "Acadian Driftwood", 
            "Closer to Fine"
        ], 
        "encore_set": []
    }, 
    "url": "http://www.lifeblood.net/appearances/1997/19971129.html"
}