{
    "date": "1998-10-01", 
    "venue": "Littlejohn Coliseum", 
    "location": "Clemson, South Carolina", 
    "setlist": {
        "regular_set": [ 
            "Go"
        ], 
        "encore_set": []
    }, 
    "url": "http://www.lifeblood.net/appearances/1998/19981001.html"
}{
    "date": "1998-10-27", 
    "venue": "The O'Connell Center", 
    "location": "Gainesville, Florida", 
    "setlist": {
        "regular_set": [
	    "Go"
	], 
        "encore_set": []
    }, 
    "url": "http://www.lifeblood.net/appearances/1998/19981027.html"
}