{
    "date": "2002-12-02", 
    "venue": "Acoustic Cafe", 
    "location": null, 
    "setlist": {
        "regular_set": [
            "Become You", 
            "Our Deliverance", 
            "Yield", 
            "Deconstruction"
        ], 
        "encore_set": []
    }, 
    "url": "http://www.lifeblood.net/appearances/2002/20021202.html"
}{
    "date": "2002-12-10", 
    "venue": "Orpheum Theatre", 
    "location": "Boston, Massachusetts", 
    "setlist": {
        "regular_set": [
            "It's Alright", 
            "Become You", 
            "Get Out the Map", 
            "Jonas and Ezekial", 
            "Collecting You", 
            "Yield", 
            "Power of Two", 
            "Dairy Queen", 
            "Winona Laduke Speech", 
            "Closer to Fine", 
            "Go", 
            "Deconstruction", 
            "Shame on You", 
            "Watershed"
        ], 
        "encore_set": [
            "Starkville", 
            "Galileo"
        ]
    }, 
    "url": "http://www.lifeblood.net/appearances/2002/20021210.html"
}{
    "date": "2002-12-11", 
    "venue": "Grand Opera House", 
    "location": "Wilminton, Delaware", 
    "setlist": null, 
    "url": null
}{
    "date": "2002-12-13", 
    "venue": "Flint Center For The Performing Arts", 
    "location": "Cupertino, California", 
    "setlist": {
        "regular_set": [
            "Become You", 
            "Get Out the Map", 
            "Shame on You", 
            "Collecting You", 
            "Yield", 
            "Power of Two", 
            "Moment of Forgiveness", 
            "Closer to Fine", 
            "Go", 
            "Deconstruction", 
            "Dairy Queen", 
            "Land of Canaan", 
            "The Wood Song", 
            "Starkville", 
            "Galileo"
        ], 
        "encore_set": []
    }, 
    "url": "http://www.lifeblood.net/appearances/2002/20021213.html"
}{
    "date": "2002-12-18", 
    "venue": "The Tabernacle", 
    "location": "Atlanta, Georgia", 
    "setlist": {
        "regular_set": [
            "Shawn Mullins", 
            "Josh Joplin Band", 
            "Peter Stuart", 
            "River", 
            "Tift Merritt", 
            "Rhett Miller", 
            "Dairy Queen", 
            "Fastball", 
            "Shawn Mullins", 
            "Paul Melancon", 
            "The Jayhawks", 
            "Rhett Miller", 
            "Moment of Forgiveness", 
            "Get Out the Map", 
            "Kid Fears", 
            "Closer to Fine", 
            "Merry Christmas"
        ], 
        "encore_set": []
    }, 
    "url": "http://www.lifeblood.net/appearances/2002/20021218.html"
}