{
    "date": "2002-07-01", 
    "venue": "Harley Davidson Summerfest", 
    "location": "Milwaukee, Wisconsin", 
    "setlist": {
        "regular_set": [
            "Bitterroot", 
            "Get Out the Map", 
            "Shame on You", 
            "Collecting You", 
            "Become You", 
            "Power of Two", 
            "Laramie", 
            "Closer to Fine", 
            "Tried to Be True", 
            "Deconstruction", 
            "Yield", 
            "Peace Tonight", 
            "Chickenman", 
            "Least Complicated", 
            "Moment of Forgiveness", 
            "Galileo"
        ], 
        "encore_set": [
            "Watershed", 
            "Go"
        ]
    }, 
    "url": "http://www.lifeblood.net/appearances/2002/20020701.html"
}{
    "date": "2002-07-02", 
    "venue": "The Fox Theatre", 
    "location": "St. Louis, Missouri", 
    "setlist": {
        "regular_set": [
            "Bitterroot", 
            "Shame on You", 
            "Power of Two", 
            "Become You", 
            "You've Got to Show", 
            "Reunion", 
            "Get Out the Map", 
            "Laramie", 
            "Collecting You", 
            "Yield", 
            "Least Complicated", 
            "Faye Tucker", 
            "Hope Alone", 
            "Gone Again", 
            "Closer to Fine", 
            "Starkville", 
            "The Wood Song", 
            "Go"
        ], 
        "encore_set": [
            "Deconstruction", 
            "Galileo"
        ]
    }, 
    "url": "http://www.lifeblood.net/appearances/2002/20020702.html"
}{
    "date": "2002-07-04", 
    "venue": "Petrillo Bandshell", 
    "location": "Chicago, Illinois", 
    "setlist": {
        "regular_set": [
            "Bitterroot", 
            "Get Out the Map", 
            "Become You", 
            "Power of Two", 
            "Tried to Be True", 
            "Closer to Fine", 
            "Laramie", 
            "Virginia Woolf", 
            "Yield", 
            "Least Complicated", 
            "Shame on You", 
            "Our Deliverance", 
            "Galileo", 
            "Go"
        ], 
        "encore_set": []
    }, 
    "url": "http://www.lifeblood.net/appearances/2002/20020704.html"
}{
    "date": "2002-07-05", 
    "venue": "State Theatre", 
    "location": "Minneapolis, Minnesota", 
    "setlist": {
        "regular_set": [
            "Bitterroot", 
            "Ozilline", 
            "You've Got to Show", 
            "Shame on You", 
            "Power of Two", 
            "Become You", 
            "Get Out the Map", 
            "Faye Tucker", 
            "Watershed", 
            "Moment of Forgiveness", 
            "Closer to Fine", 
            "Yield", 
            "Collecting You", 
            "Laramie", 
            "Least Complicated", 
            "Chickenman", 
            "Virginia Woolf", 
            "Starkville", 
            "Galileo"
        ], 
        "encore_set": [
            "She's Saving Me", 
            "Go"
        ]
    }, 
    "url": "http://www.lifeblood.net/appearances/2002/20020705.html"
}{
    "date": "2002-07-07", 
    "venue": "Red Butte Garden Ampitheatre", 
    "location": "Salt Lake City, Utah", 
    "setlist": {
        "regular_set": [
            "Bitterroot", 
            "Trouble", 
            "Become You", 
            "Get Out the Map", 
            "Tried to Be True", 
            "Deconstruction", 
            "Yield", 
            "Power of Two", 
            "Pushing the Needle", 
            "Collecting You", 
            "Shame on You", 
            "Ghost", 
            "Johnny Rottentale", 
            "Least Complicated", 
            "Kid Fears", 
            "Closer to Fine", 
            "Ozilline", 
            "You've Got to Show", 
            "Go"
        ], 
        "encore_set": [
            "Moment of Forgiveness", 
            "Galileo"
        ]
    }, 
    "url": "http://www.lifeblood.net/appearances/2002/20020707.html"
}{
    "date": "2002-07-09", 
    "venue": "Summer Nights At The Pier", 
    "location": "Seattle, Washington", 
    "setlist": {
        "regular_set": [
            "Bitterroot", 
            "Get Out the Map", 
            "Become You", 
            "Power of Two", 
            "Ozilline", 
            "You've Got to Show", 
            "Shame on You", 
            "Virginia Woolf", 
            "Faye Tucker", 
            "Hope Alone", 
            "Yield", 
            "Closer to Fine", 
            "Laramie", 
            "Least Complicated", 
            "Starkville", 
            "Deconstruction", 
            "Go", 
            "Galileo"
        ], 
        "encore_set": [
            "Collecting You", 
            "Kid Fears"
        ]
    }, 
    "url": "http://www.lifeblood.net/appearances/2002/20020709.html"
}{
    "date": "2002-07-10", 
    "venue": "Summer Nights At The Pier", 
    "location": "Seattle, Washington", 
    "setlist": {
        "regular_set": [
            "Bitterroot", 
            "Tried to Be True", 
            "Get Out the Map", 
            "Become You", 
            "Power of Two", 
            "Ozilline", 
            "Watershed", 
            "Shame on You", 
            "Closer to Fine", 
            "Moment of Forgiveness", 
            "Collecting You", 
            "Johnny Rottentale", 
            "Hope Alone", 
            "Chickenman", 
            "Least Complicated", 
            "Yield", 
            "Deconstruction", 
            "Faye Tucker", 
            "Galileo"
        ], 
        "encore_set": [
            "Reunion", 
            "Ghost", 
            "Go"
        ]
    }, 
    "url": "http://www.lifeblood.net/appearances/2002/20020710.html"
}{
    "date": "2002-07-11", 
    "venue": "Schnitzer Hall", 
    "location": "Portland, Oregon", 
    "setlist": {
        "regular_set": [
            "Bitterroot", 
            "Trouble", 
            "Gone Again", 
            "Peace Tonight", 
            "Become You", 
            "Deconstruction", 
            "Shame on You", 
            "Get Out the Map", 
            "Starkville", 
            "Closer to Fine", 
            "Laramie", 
            "Philosophy of Loss", 
            "Yield", 
            "Power of Two", 
            "Ozilline", 
            "Andy", 
            "Least Complicated", 
            "Midnight Train to Georgia", 
            "Go"
        ], 
        "encore_set": [
            "Kid Fears", 
            "Collecting You", 
            "Galileo"
        ]
    }, 
    "url": "http://www.lifeblood.net/appearances/2002/20020711.html"
}{
    "date": "2002-07-12", 
    "venue": "Secret House Vinyard", 
    "location": "Eugene, Oregon", 
    "setlist": {
        "regular_set": [
            "Bitterroot", 
            "Get Out the Map", 
            "Tried to Be True", 
            "Collecting You", 
            "Become You", 
            "Power of Two", 
            "Devotion", 
            "She's Saving Me", 
            "Shame on You", 
            "Cold Beer and Remote Control", 
            "Yield", 
            "Hope Alone", 
            "Ozilline", 
            "Closer to Fine", 
            "Chickenman", 
            "Least Complicated", 
            "Moment of Forgiveness", 
            "Galileo", 
            "Baby Don't You Break My Heart Slow", 
            "Midnight Train to Georgia", 
            "Go"
        ], 
        "encore_set": []
    }, 
    "url": "http://www.lifeblood.net/appearances/2002/20020712.html"
}{
    "date": "2002-07-13", 
    "venue": "The Greek Theatre", 
    "location": "Berkely, California", 
    "setlist": {
        "regular_set": [
            "Bitterroot", 
            "Trouble", 
            "Become You", 
            "Power of Two", 
            "Ozilline", 
            "Collecting You", 
            "Yield", 
            "Virginia Woolf", 
            "Shame on You", 
            "Get Out the Map", 
            "Starkville", 
            "Deconstruction", 
            "Closer to Fine", 
            "Faye Tucker", 
            "Watershed", 
            "Kid Fears", 
            "Least Complicated", 
            "Moment of Forgiveness", 
            "Laramie", 
            "Galileo"
        ], 
        "encore_set": [
            "Baby Don't You Break My Heart Slow", 
            "Midnight Train to Georgia", 
            "Go"
        ]
    }, 
    "url": "http://www.lifeblood.net/appearances/2002/20020713.html"
}{
    "date": "2002-07-15", 
    "venue": "The Palace", 
    "location": "Los Angeles, California", 
    "setlist": {
        "regular_set": [
            "Bitterroot", 
            "Trouble", 
            "Become You", 
            "Power of Two", 
            "Tried to Be True", 
            "Collecting You", 
            "Ozilline", 
            "Deconstruction", 
            "Reunion", 
            "Virginia Woolf", 
            "Yield", 
            "Closer to Fine", 
            "Kid Fears", 
            "Get Out the Map", 
            "Moment of Forgiveness", 
            "Watershed", 
            "Shame on You", 
            "Least Complicated", 
            "Laramie", 
            "Galileo"
        ], 
        "encore_set": [
            "Hope Alone", 
            "Johnny Rottentale", 
            "Go"
        ]
    }, 
    "url": "http://www.lifeblood.net/appearances/2002/20020715.html"
}{
    "date": "2002-07-16", 
    "venue": "Orange County Fair", 
    "location": "Costa Mesa, California", 
    "setlist": null, 
    "url": null
}{
    "date": "2002-07-17", 
    "venue": "The Joint", 
    "location": "Las Vegas, Nevada", 
    "setlist": {
        "regular_set": [
            "Bitterroot", 
            "Trouble", 
            "Become You", 
            "Power of Two", 
            "Faye Tucker", 
            "Deconstruction", 
            "Yield", 
            "Cold Beer and Remote Control", 
            "Shame on You", 
            "Get Out the Map", 
            "Starkville", 
            "Closer to Fine", 
            "Laramie", 
            "Least Complicated", 
            "Chickenman", 
            "Collecting You", 
            "Kid Fears", 
            "The Wood Song", 
            "Galileo"
        ], 
        "encore_set": [
            "Hope Alone", 
            "Go"
        ]
    }, 
    "url": "http://www.lifeblood.net/appearances/2002/20020717.html"
}{
    "date": "2002-07-18", 
    "venue": "Humphrey's By The Bay", 
    "location": "San Diego, California", 
    "setlist": {
        "regular_set": [
            "Bitterroot", 
            "Get Out the Map", 
            "Tried to Be True", 
            "Power of Two", 
            "Become You", 
            "Virginia Woolf", 
            "Ozilline", 
            "Deconstruction", 
            "Shame on You", 
            "Collecting You", 
            "Johnny Rottentale", 
            "Closer to Fine", 
            "Starkville", 
            "Peace Tonight", 
            "Yield", 
            "Our Deliverance", 
            "Reunion", 
            "Moment of Forgiveness", 
            "Galileo"
        ], 
        "encore_set": [
            "Baby Don't You Break My Heart Slow", 
            "Midnight Train to Georgia", 
            "Go"
        ]
    }, 
    "url": "http://www.lifeblood.net/appearances/2002/20020718.html"
}{
    "date": "2002-07-19", 
    "venue": "Humphrey's By The Bay", 
    "location": "San Diego, California", 
    "setlist": {
        "regular_set": [
            "Bitterroot", 
            "Trouble", 
            "Become You", 
            "Get Out the Map", 
            "Jonas and Ezekial", 
            "Power of Two", 
            "Gone Again", 
            "Midnight Train to Georgia", 
            "Least Complicated", 
            "Yield", 
            "She's Saving Me", 
            "Go", 
            "Closer to Fine", 
            "Faye Tucker", 
            "Ghost", 
            "Shame on You", 
            "Cold Beer and Remote Control", 
            "Moment of Forgiveness", 
            "Galileo"
        ], 
        "encore_set": [
            "Chickenman", 
            "Kid Fears"
        ]
    }, 
    "url": "http://www.lifeblood.net/appearances/2002/20020719.html"
}{
    "date": "2002-07-21", 
    "venue": "Winter Park Ski Resort", 
    "location": "Winter Park, Colorado", 
    "setlist": {
        "regular_set": [
            "Bitterroot", 
            "Get Out the Map", 
            "Tried to Be True", 
            "Power of Two", 
            "Become You", 
            "Collecting You", 
            "Faye Tucker", 
            "Peace Tonight", 
            "Yield", 
            "Deconstruction", 
            "Chickenman", 
            "Closer to Fine", 
            "Shame on You", 
            "Least Complicated", 
            "Moment of Forgiveness", 
            "Midnight Train to Georgia", 
            "Go", 
            "Galileo"
        ], 
        "encore_set": []
    }, 
    "url": "http://www.lifeblood.net/appearances/2002/20020721.html"
}