{
    "date": "2002-10-01", 
    "venue": "Calvin College Fine Arts Center", 
    "location": "Grand Rapids, Michigan", 
    "setlist": {
        "regular_set": [
            "Mystery", 
            "Become You", 
            "It's Alright", 
            "Gone Again", 
            "Collecting You", 
            "Dead Man's Hill", 
            "Get Out the Map", 
            "Shame on You", 
            "Power of Two", 
            "Yield", 
            "Love Will Come to You", 
            "Johnny Rottentale", 
            "Closer to Fine", 
            "Moment of Forgiveness", 
            "Least Complicated", 
            "I Don't Wanna Know", 
            "Deconstruction", 
            "Chickenman", 
            "Bitterroot", 
            "Galileo", 
            "You've Got to Show", 
            "Kid Fears", 
            "Finlandia"
        ], 
        "encore_set": []
    }, 
    "url": "http://www.lifeblood.net/appearances/2002/20021001.html"
}{
    "date": "2002-10-03", 
    "venue": "Michigan Theater", 
    "location": "Ann Arbor, Michigan", 
    "setlist": {
        "regular_set": [
            "Three Hits", 
            "Get Out the Map", 
            "Become You", 
            "Power of Two", 
            "Ozilline", 
            "Collecting You", 
            "Dead Man's Hill", 
            "It's Alright", 
            "Yield", 
            "Deconstruction", 
            "Chickenman", 
            "Bitterroot", 
            "Virginia Woolf", 
            "Johnny Rottentale", 
            "Philosophy of Loss", 
            "Gone Again", 
            "Closer to Fine", 
            "Starkville", 
            "Least Complicated", 
            "Kid Fears", 
            "Galileo"
        ], 
        "encore_set": [
            "Love's Recovery", 
            "Shame on You", 
            "Finlandia"
        ]
    }, 
    "url": "http://www.lifeblood.net/appearances/2002/20021002.html"
}{
    "date": "2002-10-07", 
    "venue": null, 
    "location": null, 
    "setlist": {
        "regular_set": [
            "Lucystoners", 
            "Dairy Queen", 
            "Romeo and Juliet", 
            "Johnny Rottentale"
        ], 
        "encore_set": []
    }, 
    "url": "http://www.lifeblood.net/appearances/2002/20021007.html"
}{
    "date": "2002-10-11", 
    "venue": "The Echo Lounge", 
    "location": "Atlanta, Georgia", 
    "setlist": {
        "regular_set": [
            "Doria Roberts", 
            "The Motolitas", 
            "Danielle Howle", 
            "Cordero", 
            "Mtns of Glory", 
            "On Your Honor", 
            "Hey Castrator", 
            "Refugee"
        ], 
        "encore_set": []
    }, 
    "url": "http://www.lifeblood.net/appearances/2002/20021011.html"
}{
    "date": "2002-10-12", 
    "venue": "Piedmont Park", 
    "location": "Atlanta, Georgia", 
    "setlist": {
        "regular_set": [
            "Gerard McHugh and the Crafties", 
            "Doria Roberts", 
            "The Moto-Litas", 
            "Paul Melancon", 
            "1945", 
            "Late Bloom", 
            "Ohio", 
            "Danielle Howle and the Tantrums"
        ], 
        "encore_set": []
    }, 
    "url": "http://www.lifeblood.net/appearances/2002/20021012.html"
}{
    "date": "2002-10-13", 
    "venue": "Eddies Attic", 
    "location": "Decatur, Georgia", 
    "setlist": {
        "regular_set": [
            "John Trudell and Gerard McHugh", 
            "A Surprise Performance by Amy Ray", 
            "Unknown", 
            "Johnny Rottentale", 
            "Unknown", 
            "Dairy Queen"
        ], 
        "encore_set": []
    }, 
    "url": "http://www.lifeblood.net/appearances/2002/20021013.html"
}