{
    "date": "2004-12-11", 
    "venue": "The Echo Lounge", 
    "location": "Atlanta, Georgia", 
    "setlist": {
        "regular_set": [
            "Blender", 
            "Driver Education", 
            "Mts of Glory", 
            "Put It Out for Good", 
            "Late Bloom", 
            "Cover for Me", 
            "Sober Girl", 
            "Let It Ring", 
            "Laramie"
        ], 
        "encore_set": []
    }, 
    "url": "http://www.lifeblood.net/appearances/2004/20041211.html"
}{
    "date": "2004-12-17", 
    "venue": "Joe's Pub", 
    "location": "New York, New York", 
    "setlist": {
        "regular_set": [
            "River", 
            "Winter Wonderland"
        ], 
        "encore_set": []
    }, 
    "url": "http://www.lifeblood.net/appearances/2004/20041217.html"
}