{
    "date": "2005-05-02", 
    "venue": "Fox Theatre And Cafe", 
    "location": "Boulder, Colorado", 
    "setlist": {
        "regular_set": [
            "Put It Out for Good", 
            "Give In", 
            "Rural Faggot", 
            "On Your Honor", 
            "Blender", 
            "Late Bloom", 
            "Driver Education", 
            "Lucystoners", 
            "Covered for You", 
            "Sober Girl", 
            "Black Heart Today", 
            "Mtns of Glory", 
            "Pennies on the Track", 
            "Let It Ring"
        ], 
        "encore_set": [
            "Johnny Rottentale", 
            "Laramie"
        ]
    }, 
    "url": "http://www.lifeblood.net/appearances/2005/20050502.html"
}{
    "date": "2005-05-04", 
    "venue": "Lo Fi Cafe", 
    "location": "Salt Lake City, Utah", 
    "setlist": {
        "regular_set": [
            "Let It Ring", 
            "Put It Out for Good", 
            "Give In", 
            "Rural Faggot", 
            "Pennies on the Track", 
            "Blender", 
            "Black Heart Today", 
            "Covered for You", 
            "Sober Girl", 
            "Lucystoners", 
            "On Your Honor", 
            "Late Bloom", 
            "Driver Education", 
            "Mtns of Glory", 
            "Laramie"
        ], 
        "encore_set": []
    }, 
    "url": "http://www.lifeblood.net/appearances/2005/20050504.html"
}{
    "date": "2005-05-06", 
    "venue": "Kink Radio", 
    "location": "Seattle, Washington", 
    "setlist": null, 
    "url": null
}{
    "date": "2005-05-06", 
    "venue": "Electric Eye Radio", 
    "location": "Seattle, Washington", 
    "setlist": null, 
    "url": null
}{
    "date": "2005-05-06", 
    "venue": "Neumos Crystal Ball Reading Room", 
    "location": "Seattle, Washington", 
    "setlist": {
        "regular_set": [
            "Let It Ring", 
            "Put It Out for Good", 
            "Give In", 
            "Rural Faggot", 
            "Pennies on the Track", 
            "Blender", 
            "Black Heart Today", 
            "Covered for You", 
            "Sober Girl", 
            "Lucystoners", 
            "On Your Honor", 
            "Late Bloom", 
            "Driver Education", 
            "Mtns of Glory"
        ], 
        "encore_set": [
            "Laramie"
        ]
    }, 
    "url": "http://www.lifeblood.net/appearances/2005/20050506.html"
}{
    "date": "2005-05-07", 
    "venue": "The Red Room", 
    "location": "Vancouver, British Columbia", 
    "setlist": {
        "regular_set": [
            "Put It Out for Good", 
            "Give In", 
            "Rural Faggot", 
            "On Your Honor", 
            "Rodeo", 
            "Blender", 
            "Late Bloom", 
            "Driver Education", 
            "Lucystoners", 
            "Covered for You", 
            "Sober Girl", 
            "Black Heart Today", 
            "Mtns of Glory", 
            "Pennies on the Track", 
            "Let It Ring"
        ], 
        "encore_set": [
            "Laramie"
        ]
    }, 
    "url": "http://www.lifeblood.net/appearances/2005/20050507.html"
}{
    "date": "2005-05-08", 
    "venue": "Crystal Ballroom", 
    "location": "Portland, Oregon", 
    "setlist": {
        "regular_set": [
            "Let It Ring", 
            "Put It Out for Good", 
            "Give In", 
            "Rural Faggot", 
            "Pennies on the Track", 
            "Blender", 
            "Black Heart Today", 
            "Covered for You", 
            "Sober Girl", 
            "Lucystoners", 
            "On Your Honor", 
            "Late Bloom", 
            "Driver Education", 
            "Mtns of Glory", 
            "Laramie"
        ], 
        "encore_set": []
    }, 
    "url": "http://www.lifeblood.net/appearances/2005/20050508.html"
}{
    "date": "2005-05-09", 
    "venue": "Music Millennium Northwest", 
    "location": "Portland, Oregon", 
    "setlist": null, 
    "url": null
}{
    "date": "2005-05-09 thru 13", 
    "venue": null, 
    "location": null, 
    "setlist": null, 
    "url": null
}{
    "date": "2005-05-10", 
    "venue": "The Washington National Cathedral", 
    "location": "Washington, D.c.", 
    "setlist": {
        "regular_set": [
            "All That We Let In", 
            "Our Deliverance", 
            "History of Us", 
            "Hammer and a Nail", 
            "Unknown Hymn", 
            "Unknown Duke Ellington Song"
        ], 
        "encore_set": []
    }, 
    "url": "http://www.lifeblood.net/appearances/2005/20050510.html"
}{
    "date": "2005-05-10", 
    "venue": "Slim's", 
    "location": "San Francisco, California", 
    "setlist": {
        "regular_set": [
            "Let It Ring", 
            "Put It Out for Good", 
            "Give In", 
            "Rural Faggot", 
            "Pennies on the Track", 
            "Blender", 
            "Black Heart Today", 
            "Covered for You", 
            "Sober Girl", 
            "Lucystoners", 
            "On Your Honor", 
            "Late Bloom", 
            "Driver Education", 
            "Mtns of Glory", 
            "Laramie"
        ], 
        "encore_set": []
    }, 
    "url": "http://www.lifeblood.net/appearances/2005/20050510a.html"
}{
    "date": "2005-05-11", 
    "venue": "Borders At Union Square", 
    "location": "San Francisco, California", 
    "setlist": {
        "regular_set": [
            "Give In", 
            "Late Bloom", 
            "Rodeo", 
            "Driver Education"
        ], 
        "encore_set": []
    }, 
    "url": "http://www.lifeblood.net/appearances/2005/20050511.html"
}{
    "date": "2005-05-12", 
    "venue": "El Rey Theater", 
    "location": "Los Angeles, California", 
    "setlist": {
        "regular_set": [
            "Let It Ring", 
            "Put It Out for Good", 
            "Give In", 
            "Rural Faggot", 
            "Pennies on the Track", 
            "Blender", 
            "Black Heart Today", 
            "Covered for You", 
            "Sober Girl", 
            "Lucystoners", 
            "On Your Honor", 
            "Late Bloom", 
            "Driver Education", 
            "Mtns of Glory", 
            "Laramie"
        ], 
        "encore_set": []
    }, 
    "url": "http://www.lifeblood.net/appearances/2005/20050512.html"
}{
    "date": "2005-05-13", 
    "venue": "Galaxy Theatre", 
    "location": "Santa Ana, California", 
    "setlist": null, 
    "url": null
}{
    "date": "2005-05-14", 
    "venue": "Plush Room", 
    "location": "Tucson, Arizona", 
    "setlist": {
        "regular_set": [
            "Put It Out for Good", 
            "Sober Girl", 
            "Rural Faggot", 
            "On Your Honor", 
            "Late Bloom", 
            "Black Heart Today", 
            "Covered for You", 
            "Give In", 
            "Lucystoners", 
            "Blender", 
            "Mtns of Glory", 
            "Driver Education", 
            "Pennies on the Track", 
            "Let It Ring", 
            "Chiapas Bound", 
            "Johnnny Rottentale", 
            "Laramie"
        ], 
        "encore_set": []
    }, 
    "url": "http://www.lifeblood.net/appearances/2005/20050514.html"
}{
    "date": "2005-05-16", 
    "venue": "The Beverly Hilton Hotel", 
    "location": "Beverly Hills, California", 
    "setlist": {
        "regular_set": [
            "Down by the River"
        ], 
        "encore_set": []
    }, 
    "url": "http://www.lifeblood.net/appearances/2005/20050516.html"
}