{
    "date": "2005-07-06", 
    "venue": "Humphrey's By The Bay", 
    "location": "San Diego, California", 
    "setlist": {
        "regular_set": [
            "Hammer and a Nail", 
            "Devotion", 
            "Fill It Up Again", 
            "Ozilline", 
            "Power of Two", 
            "Dairy Queen", 
            "Thin Line", 
            "Get Out the Map", 
            "Joking", 
            "Cold Beer and Remote Control", 
            "Shame on You", 
            "Closer to Fine", 
            "Perfect World", 
            "Winthrop", 
            "Let It Ring", 
            "Virginia Woolf", 
            "Land of Canaan", 
            "Prince of Darkness", 
            "Chickenman", 
            "Bitterroot"
        ], 
        "encore_set": [
            "Galileo", 
            "Finlandia"
        ]
    }, 
    "url": "http://www.lifeblood.net/appearances/2005/20050706.html"
}{
    "date": "2005-07-07", 
    "venue": "Vault 350", 
    "location": "Long Beach, California", 
    "setlist": {
        "regular_set": [
            "Yield", 
            "Fill It Up Again", 
            "Heartache for Everyone", 
            "Power of Two", 
            "Devotion", 
            "Get Out the Map", 
            "Moment of Forgiveness", 
            "Everything in Its Own Time", 
            "Perfect World", 
            "Least Complicated", 
            "World Falls", 
            "The Wildest Times of the World", 
            "Closer to Fine", 
            "Shame on You", 
            "The Wood Song", 
            "Dairy Queen", 
            "Winthrop", 
            "Driver Education", 
            "Virginia Woolf"
        ], 
        "encore_set": [
            "Baby Don't You Break My Heart Slow", 
            "Galileo", 
            "Finlandia"
        ]
    }, 
    "url": "http://www.lifeblood.net/appearances/2005/20050707.html"
}{
    "date": "2005-07-08", 
    "venue": "Robert Z. Hawkins Amphitheater", 
    "location": "Reno, Nevada", 
    "setlist": {
        "regular_set": [
            "Shame on You", 
            "Hammer and a Nail", 
            "Joking", 
            "Fill It Up Again", 
            "Dairy Queen", 
            "Power of Two", 
            "World Falls", 
            "Mystery", 
            "Yield", 
            "Let It Be Me", 
            "Go", 
            "Get Out the Map", 
            "Starkville", 
            "Prince of Darkness", 
            "Perfect World", 
            "Winthrop", 
            "Romeo and Juliet", 
            "Closer to Fine", 
            "Chickenman", 
            "Bitterroot"
        ], 
        "encore_set": [
            "Galileo", 
            "Finlandia"
        ]
    }, 
    "url": "http://www.lifeblood.net/appearances/2005/20050708.html"
}{
    "date": "2005-07-09", 
    "venue": "Fox Theater", 
    "location": "Redwood City, California", 
    "setlist": {
        "regular_set": [
            "Devotion", 
            "Fill It Up Again", 
            "Joking", 
            "Power of Two", 
            "Ozilline", 
            "The Wood Song", 
            "Perfect World", 
            "Andy", 
            "Shame on You", 
            "Least Complicated", 
            "Dairy Queen", 
            "Winthrop", 
            "Let It Ring", 
            "Get Out the Map", 
            "Let Me Go Easy", 
            "Closer to Fine", 
            "Kid Fears", 
            "Virginia Woolf", 
            "Chickenman", 
            "Bitterroot"
        ], 
        "encore_set": [
            "Galileo", 
            "Finlandia"
        ]
    }, 
    "url": "http://www.lifeblood.net/appearances/2005/20050709.html"
}{
    "date": "2005-07-10", 
    "venue": "Montalvo Center For The Arts", 
    "location": "Saratoga, California", 
    "setlist": {
        "regular_set": [
            "Yield", 
            "Fill It Up Again", 
            "Thin Line", 
            "Power of Two", 
            "Perfect World", 
            "Watershed", 
            "Faye Tucker", 
            "Let It Be Me", 
            "Heartache for Everyone", 
            "Everything in Its Own Time", 
            "Land of Canaan", 
            "Get Out the Map", 
            "Starkville", 
            "Closer to Fine", 
            "Johnny Rottentale", 
            "Winthrop", 
            "Moment of Forgiveness", 
            "The Wood Song", 
            "Go"
        ], 
        "encore_set": [
            "Galileo", 
            "Finlandia"
        ]
    }, 
    "url": "http://www.lifeblood.net/appearances/2005/20050710.html"
}{
    "date": "2005-07-12", 
    "venue": "Luther Burbank Center For The Arts", 
    "location": "Santa Rosa, California", 
    "setlist": {
        "regular_set": [
            "Devotion", 
            "Fill It Up Again", 
            "Ozilline", 
            "Power of Two", 
            "Perfect World", 
            "Watershed", 
            "Dairy Queen", 
            "Ghost", 
            "Thin Line", 
            "Get Out the Map", 
            "Chickenman", 
            "Bitterroot", 
            "Collecting You", 
            "Shame on You", 
            "Let It Be Me", 
            "Yield", 
            "Winthrop", 
            "Driver Education", 
            "Closer to Fine", 
            "Land of Canaan"
        ], 
        "encore_set": [
            "Galileo", 
            "Finlandia"
        ]
    }, 
    "url": "http://www.lifeblood.net/appearances/2005/20050712.html"
}{
    "date": "2005-07-13", 
    "venue": "Napa Valley Opera House", 
    "location": "Napa, California", 
    "setlist": {
        "regular_set": [
            "Fill It Up Again", 
            "Devotion", 
            "Hammer and a Nail", 
            "Dairy Queen", 
            "Power of Two", 
            "Scooter Boys", 
            "Get Out the Map", 
            "Welcome Me", 
            "The Wood Song", 
            "Shame on You", 
            "Prince of Darkness", 
            "Yield", 
            "Love's Recovery", 
            "Heartache for Everyone", 
            "Closer to Fine", 
            "World Falls", 
            "Winthrop", 
            "Go", 
            "Virginia Woolf"
        ], 
        "encore_set": [
            "Three County Highway", 
            "Galileo"
        ]
    }, 
    "url": "http://www.lifeblood.net/appearances/2005/20050713.html"
}{
    "date": "2005-07-15", 
    "venue": "Secret House Vineyard", 
    "location": "Veneta, Oregon", 
    "setlist": {
        "regular_set": [
            "Devotion", 
            "Hammer and a Nail", 
            "Joking", 
            "Fill It Up Again", 
            "Perfect World", 
            "Power of Two", 
            "Yield", 
            "Love Will Come to You", 
            "Shame on You", 
            "Least Complicated", 
            "Scooter Boys", 
            "Winthrop", 
            "Romeo and Juliet", 
            "Get Out the Map", 
            "Dairy Queen", 
            "Ghost", 
            "World Falls", 
            "Closer to Fine", 
            "Chickenman", 
            "Bitterroot"
        ], 
        "encore_set": [
            "Galileo", 
            "Finlandia"
        ]
    }, 
    "url": "http://www.lifeblood.net/appearances/2005/20050715.html"
}{
    "date": "2005-07-17", 
    "venue": "Oregon Zoo Amphitheater", 
    "location": "Portland, Oregon", 
    "setlist": {
        "regular_set": [
            "Yield", 
            "Fill It Up Again", 
            "Perfect World", 
            "Power of Two", 
            "Go", 
            "Watershed", 
            "Devotion", 
            "Get Out the Map", 
            "Heartache for Everyone", 
            "Winthrop", 
            "Let It Ring", 
            "Thinline", 
            "Love Will Come to You", 
            "Shame on You", 
            "The Wood Song", 
            "Dairy Queen", 
            "Collecting You", 
            "Chickenman", 
            "Bitterroot", 
            "Closer to Fine"
        ], 
        "encore_set": [
            "Galileo", 
            "Finlandia"
        ]
    }, 
    "url": "http://www.lifeblood.net/appearances/2005/20050717.html"
}{
    "date": "2005-07-19", 
    "venue": "Summer Nights At South Lake Union Park", 
    "location": "Seattle, Washington", 
    "setlist": {
        "regular_set": [
            "Hammer and a Nail", 
            "Devotion", 
            "Fill It Up Again", 
            "Perfect World", 
            "Power of Two", 
            "Yield", 
            "The Wood Song", 
            "Scooter Boys", 
            "Love Will Come to You", 
            "Cold as Ice", 
            "Land of Canaan", 
            "Let It Be Me", 
            "Dairy Queen", 
            "Winthrop", 
            "Let It Ring", 
            "Get Out the Map", 
            "Shame on You", 
            "Cold Beer and Remote Control", 
            "Chickenman", 
            "Bitterroot", 
            "Closer to Fine"
        ], 
        "encore_set": [
            "Galileo", 
            "Finlandia"
        ]
    }, 
    "url": "http://www.lifeblood.net/appearances/2005/20050719.html"
}{
    "date": "2005-07-20", 
    "venue": "Summer Nights At South Lake Union Park", 
    "location": "Seattle, Washington", 
    "setlist": {
        "regular_set": [
            "Devotion", 
            "Fill It Up Again", 
            "Ozilline", 
            "Power of Two", 
            "Heartache for Everyone", 
            "Least Complicated", 
            "Go", 
            "Our Deliverance", 
            "Dairy Queen", 
            "Prince of Darkness", 
            "Shame on You", 
            "Get Out the Map", 
            "Let Me Go Easy", 
            "Winthrop", 
            "Driver Education", 
            "Virginia Woolf", 
            "Joking", 
            "Closer to Fine", 
            "Kid Fears"
        ], 
        "encore_set": [
            "Yield", 
            "Galileo"
        ]
    }, 
    "url": "http://www.lifeblood.net/appearances/2005/20050720.html"
}{
    "date": "2005-07-21", 
    "venue": "Commodore Ballroom", 
    "location": "Vancouver, British Columbia", 
    "setlist": {
        "regular_set": [
            "Yield", 
            "Fill It Up Again", 
            "Devotion", 
            "Power of Two", 
            "Heartache for Everyone", 
            "The Wood Song", 
            "Starkville", 
            "Get Out the Map", 
            "Go", 
            "Collecting You", 
            "Shame on You", 
            "Watershed", 
            "Scooter Boys", 
            "Winthrop", 
            "Let It Ring", 
            "Virginia Woolf", 
            "World Falls", 
            "Closer to Fine", 
            "Land of Canaan"
        ], 
        "encore_set": [
            "Moment of Forgiveness", 
            "Galileo"
        ]
    }, 
    "url": "http://www.lifeblood.net/appearances/2005/20050721.html"
}{
    "date": "2005-07-22", 
    "venue": "Calgary Folk Music Festival", 
    "location": "Calgary, Alberta", 
    "setlist": {
        "regular_set": [
            "Devotion", 
            "Fill It Up Again", 
            "Yield", 
            "Power of Two", 
            "Shame on You", 
            "Get Out the Map", 
            "Faye Tucker", 
            "Ghost", 
            "Dairy Queen", 
            "Closer to Fine", 
            "Chickenman", 
            "Bitterroot", 
            "Galileo"
        ], 
        "encore_set": [
            "Land of Canaan"
        ]
    }, 
    "url": "http://www.lifeblood.net/appearances/2005/20050722.html"
}{
    "date": "2005-07-24", 
    "venue": "Wiggins Park", 
    "location": "Camden, New Jersey", 
    "setlist": {
        "regular_set": [
            "Shame on You", 
            "Fill It Up Again", 
            "Yield", 
            "Power of Two", 
            "Devotion", 
            "Get Out the Map", 
            "Heartache for Everyone", 
            "Closer to Fine", 
            "Go", 
            "Ghost", 
            "Chickenman", 
            "Bitterroot", 
            "Galileo"
        ], 
        "encore_set": [
            "Land of Canaan"
        ]
    }, 
    "url": "http://www.lifeblood.net/appearances/2005/20050724.html"
}