{
    "date": "2006-08-02", 
    "venue": null, 
    "location": null, 
    "setlist": null, 
    "url": null
}{
    "date": "2006-08-06", 
    "venue": "Newport Folk Festival", 
    "location": "Newport, Rhode Island", 
    "setlist": {
        "regular_set": [
            "Devotion", 
            "It's Alright", 
            "Yield", 
            "Fill It Up Again", 
            "Three County Highway", 
            "Lay My Head Down", 
            "Land of Canaan", 
            "Power of Two", 
            "Dairy Queen", 
            "Pendulum Swinger", 
            "Little Perennials", 
            "Get Out the Map", 
            "Chickenman", 
            "Bitterroot", 
            "Closer to Fine"
        ], 
        "encore_set": [
            "Kid Fears", 
            "Galileo"
        ]
    }, 
    "url": "http://www.lifeblood.net/appearances/2006/20060806.html"
}{
    "date": "2006-08-31", 
    "venue": "Eddie's Attic", 
    "location": "Decatur, Georgia", 
    "setlist": {
        "regular_set": [
            "Closer to Fine", 
            "Dairy Queen", 
            "Little Perennials", 
            "Pendulum Swinger", 
            "Three County Highway", 
            "Lay My Head Down", 
            "Galileo", 
            "Kid Fears", 
            "Ghost"
        ], 
        "encore_set": []
    }, 
    "url": "http://www.lifeblood.net/appearances/2006/20060831.html"
}