{
    "date": "2006-02-08", 
    "venue": "Mccarter Theater", 
    "location": "Princeton, New Jersey", 
    "setlist": {
        "regular_set": [
            "Yield", 
            "Least Complicated", 
            "Devotion", 
            "Fill It Up Again", 
            "Dairy Queen", 
            "Power of Two", 
            "Ozilline", 
            "Leaving", 
            "Go", 
            "Get Out the Map", 
            "Land of Canaan", 
            "You and Me of the 10,000 Wars", 
            "Romeo and Juliet", 
            "Collecting You", 
            "Let Me Go Easy", 
            "Closer to Fine", 
            "Chickenman", 
            "Bitterroot", 
            "Galileo"
        ], 
        "encore_set": [
            "Trouble", 
            "Tether", 
            "Midnight Train to Georgia"
        ]
    }, 
    "url": "http://www.lifeblood.net/appearances/2006/20060208.html"
}{
    "date": "2006-02-09", 
    "venue": "Community Theater", 
    "location": "Morristown, New Jersey", 
    "setlist": {
        "regular_set": [
            "It's Alright", 
            "Become You", 
            "Fill It Up Again", 
            "Welcome Me", 
            "Get Out the Map", 
            "Yield", 
            "Power of Two", 
            "Dairy Queen", 
            "She's Saving Me", 
            "Go", 
            "Cold Beer and Remote Control", 
            "Rodeo", 
            "Closer to Fine", 
            "Chickenman", 
            "Bitterroot", 
            "Galileo"
        ], 
        "encore_set": [
            "Trouble", 
            "Tether", 
            "Midnight Train to Georgia"
        ]
    }, 
    "url": "http://www.lifeblood.net/appearances/2006/20060209.html"
}{
    "date": "2006-02-10", 
    "venue": "Bardavon Opera House", 
    "location": "Poughkeepsie, New York", 
    "setlist": {
        "regular_set": [
            "Devotion", 
            "Get Out the Map", 
            "Dairy Queen", 
            "It's Alright", 
            "Shame on You", 
            "Leaving", 
            "Yield", 
            "Fill It Up Again", 
            "Go", 
            "Mystery", 
            "Starkville", 
            "Hammer and a Nail", 
            "Land of Canaan", 
            "Power of Two", 
            "Ozilline", 
            "Closer to Fine", 
            "Moment of Forgiveness", 
            "Galileo"
        ], 
        "encore_set": [
            "Trouble", 
            "Tether", 
            "Midnight Train to Georgia"
        ]
    }, 
    "url": "http://www.lifeblood.net/appearances/2006/20060210.html"
}{
    "date": "2006-02-11", 
    "venue": "Hart Theater", 
    "location": "Albany, New York", 
    "setlist": {
        "regular_set": [
            "Fill It Up Again", 
            "Devotion", 
            "Thin Line", 
            "Get Out the Map", 
            "Power of Two", 
            "Dairy Queen", 
            "Ghost", 
            "Land of Canaan", 
            "The Wood Song", 
            "Yield", 
            "All That We Let In", 
            "Jonas and Ezekial", 
            "Let It Be Me", 
            "Let It Ring", 
            "Closer to Fine", 
            "Moment of Forgiveness", 
            "Galileo", 
            "Chickenman", 
            "Bitterroot", 
            "Compromise", 
            "Trouble", 
            "Tether", 
            "Midnight Train to Georgia"
        ], 
        "encore_set": []
    }, 
    "url": "http://www.lifeblood.net/appearances/2006/20060211.html"
}{
    "date": "2006-02-12", 
    "venue": "Mccarter Theater", 
    "location": "Princeton, New Jersey", 
    "setlist": null, 
    "url": null
}{
    "date": "2006-02-13", 
    "venue": "Mccarter Theater", 
    "location": "Princeton, New Jersey", 
    "setlist": {
        "regular_set": [
            "Run Jenny Run", 
            "Devotion", 
            "Get Out the Map", 
            "Shame on You", 
            "Power of Two", 
            "Dairy Queen", 
            "She's Saving Me", 
            "Ozilline", 
            "It's Alright", 
            "Heartache for Everyone", 
            "The Wood Song", 
            "Dirt and Dead Ends", 
            "Fill It Up Again", 
            "World Falls", 
            "Let It Be Me", 
            "Let Me Go Easy", 
            "Closer to Fine", 
            "Moment of Forgiveness", 
            "Galileo"
        ], 
        "encore_set": [
            "Compromise", 
            "Trouble", 
            "Tether", 
            "Midnight Train to Georgia"
        ]
    }, 
    "url": "http://www.lifeblood.net/appearances/2006/20060213.html"
}