{
    "date": "2007-04-02", 
    "venue": "Tower City Amphitheater", 
    "location": "Cleveland, Ohio", 
    "setlist": {
        "regular_set": [
            "Yield", 
            "Pendulum Swinger", 
            "Heartache for Everyone", 
            "It's Alright", 
            "Money Made You Mean", 
            "Power of Two", 
            "Devotion", 
            "Lay My Head Down", 
            "Three County Highway", 
            "Get Out the Map", 
            "Watershed", 
            "Shame on You", 
            "Closer to Fine", 
            "Kid Fears", 
            "Land of Canaan", 
            "Galileo"
        ], 
        "encore_set": [
            "Rock and Roll Heaven's Gate", 
            "Midnight Train to Georgia", 
            "Tether"
        ]
    }, 
    "url": "http://www.lifeblood.net/appearances/2007/20070402.html"
}{
    "date": "2007-04-20", 
    "venue": "Senator John Heinz History Center", 
    "location": "Pittsburgh, Pennsylvania", 
    "setlist": {
        "regular_set": [
            "Perfect World", 
            "Pendulum Swinger", 
            "Ozilline", 
            "Power of Two", 
            "Devotion", 
            "Our Deliverance", 
            "Shame on You", 
            "Closer to Fine", 
            "Money Made You Mean", 
            "Galileo"
        ], 
        "encore_set": []
    }, 
    "url": "http://www.lifeblood.net/appearances/2007/20070420.html"
}{
    "date": "2007-04-21", 
    "venue": "Innsbrook Pavillion", 
    "location": "Glen Allen, Virginia", 
    "setlist": {
        "regular_set": [
            "Pendulum Swinger", 
            "Little Perennials", 
            "It's Alright", 
            "Yield", 
            "Run", 
            "Jonas and Ezekial", 
            "Power of Two", 
            "Land of Canaan", 
            "Fill It Up Again", 
            "Dairy Queen", 
            "Ghost", 
            "Ozilline", 
            "Watershed", 
            "Shame on You", 
            "Lay My Head Down", 
            "Moment of Forgiveness", 
            "Get Out the Map", 
            "Kid Fears", 
            "Closer to Fine"
        ], 
        "encore_set": [
            "Money Made You Mean", 
            "Midnight Train to Georgia", 
            "Galileo"
        ]
    }, 
    "url": "http://www.lifeblood.net/appearances/2007/20070421.html"
}{
    "date": "2007-04-24", 
    "venue": "Eyedrum Gallery", 
    "location": "Atlanta, Georgia", 
    "setlist": {
        "regular_set": [
            "Genocidal Youth", 
            "Measure of Me", 
            "Driver Education", 
            "Put It Out for Good", 
            "Unknown New Song", 
            "Let It Ring", 
            "Sugar Tongue", 
            "On Your Honor"
        ], 
        "encore_set": []
    }, 
    "url": "http://www.lifeblood.net/appearances/2007/20070424.html"
}