{
    "date": "2007-02-14", 
    "venue": "The Junction", 
    "location": "Cambridge, England", 
    "setlist": {
        "regular_set": [
            "Get Out the Map", 
            "Heartache for Everyone", 
            "Hammer and a Nail", 
            "Three Hits", 
            "Pendulum Swinger", 
            "Dairy Queen", 
            "Power of Two", 
            "Ozilline", 
            "I Believe in Love", 
            "Become You", 
            "Lay My Head Down", 
            "The Wood Song", 
            "Little Perennials", 
            "Our Deliverance", 
            "Money Made You Mean", 
            "Closer to Fine", 
            "Let It Ring", 
            "Virginia Woolf", 
            "Shame on You", 
            "Fill It Up Again"
        ], 
        "encore_set": [
            "Chickenman", 
            "Bitterroot", 
            "Galileo"
        ]
    }, 
    "url": "http://www.lifeblood.net/appearances/2007/20070214.html"
}{
    "date": "2007-02-15", 
    "venue": "Shepherds Bush Empire", 
    "location": "London, England", 
    "setlist": {
        "regular_set": [
            "Fill It Up Again", 
            "Three Hits", 
            "Pendulum Swinger", 
            "Yield", 
            "Run", 
            "Three County Highway", 
            "Get Out the Map", 
            "Heartache for Everyone", 
            "Lay My Head Down", 
            "Shame on You", 
            "Power of Two", 
            "Little Perennials", 
            "Our Deliverance", 
            "Go", 
            "Collecting You", 
            "Money Made You Mean", 
            "Last Tears", 
            "Dairy Queen", 
            "The Wood Song", 
            "Let It Ring", 
            "Closer to Fine", 
            "Chickenman", 
            "Bitterroot"
        ], 
        "encore_set": [
            "Ghost", 
            "Galileo"
        ]
    }, 
    "url": "http://www.lifeblood.net/appearances/2007/20070215.html"
}{
    "date": "2007-02-17", 
    "venue": "Concorde 2", 
    "location": "Brighton, England", 
    "setlist": {
        "regular_set": [
            "Devotion", 
            "Fill It Up Again", 
            "Yield", 
            "Pendulum Swinger", 
            "Three County Highway", 
            "Power of Two", 
            "Heartache for Everyone", 
            "Lay My Head Down", 
            "Three Hits", 
            "Get Out the Map", 
            "Little Perennials", 
            "Last Tears", 
            "Land of Canaan", 
            "The Wood Song", 
            "Money Made You Mean", 
            "Watershed", 
            "Closer to Fine"
        ], 
        "encore_set": [
            "Chickenman", 
            "Bitterroot", 
            "Galileo"
        ]
    }, 
    "url": "http://www.lifeblood.net/appearances/2007/20070217.html"
}{
    "date": "2007-02-18", 
    "venue": "Carling Academy Bristol", 
    "location": "Bristol, England", 
    "setlist": {
        "regular_set": [
            "Fill It Up Again", 
            "Ozilline", 
            "Pendulum Swinger", 
            "Dairy Queen", 
            "It's Alright", 
            "Little Perennials", 
            "Power of Two", 
            "Yield", 
            "Run", 
            "Land of Canaan", 
            "Get Out the Map", 
            "Shame on You", 
            "Collecting You", 
            "Three County Highway", 
            "Lay My Head Down", 
            "Go", 
            "Prince of Darkness", 
            "Money Made You Mean", 
            "Mystery", 
            "Chickenman", 
            "Bitterroot", 
            "Closer to Fine"
        ], 
        "encore_set": [
            "Kid Fears", 
            "Galileo"
        ]
    }, 
    "url": "http://www.lifeblood.net/appearances/2007/20070218.html"
}{
    "date": "2007-02-20", 
    "venue": "Carling Academy Birmingham", 
    "location": "Birmingham, England", 
    "setlist": {
        "regular_set": [
            "Yield", 
            "Fill It Up Again", 
            "Little Perennials", 
            "Pendulum Swinger", 
            "Ozilline", 
            "Southland in the Springtime", 
            "Money Made You Mean", 
            "Least Complicated", 
            "Moment of Forgiveness", 
            "Lay My Head Down", 
            "Shame on You", 
            "Get Out the Map", 
            "Three County Highway", 
            "Power of Two", 
            "Dairy Queen", 
            "The Wood Song", 
            "Johnny Rottentale", 
            "I Believe in Love", 
            "Go", 
            "Closer to Fine", 
            "Chickenman", 
            "Bitterroot"
        ], 
        "encore_set": [
            "Ghost", 
            "Galileo"
        ]
    }, 
    "url": "http://www.lifeblood.net/appearances/2007/20070220.html"
}{
    "date": "2007-02-21", 
    "venue": null, 
    "location": null, 
    "setlist": {
        "regular_set": [
            "Pendulum Swinger", 
            "Little Perennials", 
            "Kid Fears"
        ], 
        "encore_set": []
    }, 
    "url": "http://www.lifeblood.net/appearances/2007/20070221a.html"
}{
    "date": "2007-02-21", 
    "venue": "Manchester University", 
    "location": "Manchester, England", 
    "setlist": {
        "regular_set": [
            "Hammer and a Nail", 
            "Devotion", 
            "Fill It Up Again", 
            "Little Perennials", 
            "Pendulum Swinger", 
            "Starkville", 
            "Power of Two", 
            "Yield", 
            "Run", 
            "Land of Canaan", 
            "Mystery", 
            "Jonas and Ezekial", 
            "Get Out the Map", 
            "Shame on You", 
            "Watershed", 
            "Three County Highway", 
            "Lay My Head Down", 
            "Become You", 
            "Last Tears", 
            "Chickenman", 
            "Bitterroot", 
            "Closer to Fine"
        ], 
        "encore_set": [
            "Let It Ring", 
            "Galileo", 
            "Kid Fears"
        ]
    }, 
    "url": "http://www.lifeblood.net/appearances/2007/20070221.html"
}{
    "date": "2007-02-22", 
    "venue": "Memorial Hall", 
    "location": "Sheffield, England", 
    "setlist": {
        "regular_set": [
            "Pendulum Swinger", 
            "Little Perennials", 
            "It's Alright", 
            "Dairy Queen", 
            "Power of Two", 
            "Three County Highway", 
            "Fill It Up Again", 
            "Ozilline", 
            "I Believe in Love", 
            "Devotion", 
            "Get Out the Map", 
            "Heartache for Everyone", 
            "Last Tears", 
            "Money Made You Mean", 
            "The Wood Song", 
            "Yield", 
            "Run", 
            "Driver Education", 
            "She's Saving Me", 
            "Shame on You", 
            "Closer to Fine"
        ], 
        "encore_set": [
            "Least Complicated", 
            "Kid Fears", 
            "Galileo"
        ]
    }, 
    "url": "http://www.lifeblood.net/appearances/2007/20070222.html"
}{
    "date": "2007-02-23", 
    "venue": "Abc", 
    "location": "Glasgow, Scotland", 
    "setlist": {
        "regular_set": [
            "Fill It Up Again", 
            "Yield", 
            "Pendulum Swinger", 
            "Little Perennials", 
            "Power of Two", 
            "Dairy Queen", 
            "It's Alright", 
            "Heartache for Everyone", 
            "I Believe in Love", 
            "Money Made You Mean", 
            "The Wood Song", 
            "Become You", 
            "Love Will Come to You", 
            "Land of Canaan", 
            "Get Out the Map", 
            "Three County Highway", 
            "Prince of Darkness", 
            "Chickenman", 
            "Bitterroot", 
            "Closer to Fine"
        ], 
        "encore_set": [
            "Let It Ring", 
            "Galileo"
        ]
    }, 
    "url": "http://www.lifeblood.net/appearances/2007/20070223.html"
}{
    "date": "2007-02-25", 
    "venue": "Ambassador Theatre", 
    "location": "Dublin, Ireland", 
    "setlist": {
        "regular_set": [
            "Yield", 
            "It's Alright", 
            "Pendulum Swinger", 
            "Ozilline", 
            "Power of Two", 
            "Become You", 
            "Run", 
            "Three County Highway", 
            "Watershed", 
            "Land of Canaan", 
            "Lay My Head Down", 
            "Shame on You", 
            "The Wood Song", 
            "Money Made You Mean", 
            "Love's Recovery", 
            "Devotion", 
            "Get Out the Map", 
            "Kid Fears", 
            "Closer to Fine", 
            "Chickenman", 
            "Bitterroot"
        ], 
        "encore_set": [
            "Last Tears", 
            "Let It Ring", 
            "Galileo"
        ]
    }, 
    "url": "http://www.lifeblood.net/appearances/2007/20070225.html"
}