{
    "date": "2009-02-02", 
    "venue": "Wow Hall", 
    "location": "Eugene, Oregon", 
    "setlist": {
        "regular_set": [
            "Birds of a Feather", 
            "She's Got to Be", 
            "Slc Radio", 
            "Blame Is a Killer", 
            "Black Heart Today", 
            "Measure of Me", 
            "Driver Education", 
            "Who Sold the Gun", 
            "Bus Bus", 
            "Blender", 
            "Cold Shoulder", 
            "Late Bloom", 
            "Unknown", 
            "Covered for You", 
            "Sober Girl", 
            "Give In", 
            "On Your Honor", 
            "Put It Out for Good", 
            "Johnny Rottentale", 
            "Johnny Sue", 
            "Laramie"
        ], 
        "encore_set": []
    }, 
    "url": "http://www.lifeblood.net/appearances/2009/20090202.html"
}{
    "date": "2009-02-03", 
    "venue": "The Wonder Ballroom", 
    "location": "Portland, Oregon", 
    "setlist": {
        "regular_set": [
            "Birds of a Feather", 
            "She's Got to Be", 
            "Slc Radio", 
            "Blame Is a Killer", 
            "Black Heart Today", 
            "Late Bloom", 
            "Measure of Me", 
            "Driver Education", 
            "Who Sold the Gun", 
            "Bus Bus", 
            "Blender", 
            "Cold Shoulder", 
            "Sober Girl", 
            "Give In", 
            "On Your Honor", 
            "Put It Out for Good", 
            "Johnny Rottentale", 
            "Let It Ring", 
            "Laramie"
        ], 
        "encore_set": []
    }, 
    "url": "http://www.lifeblood.net/appearances/2009/20090203.html"
}{
    "date": "2009-02-04", 
    "venue": "Neumos Crystal Ball Room", 
    "location": "Seattle, Washington", 
    "setlist": {
        "regular_set": [
            "Birds of a Feather", 
            "She's Got to Be", 
            "Black Heart Today", 
            "Slc Radio", 
            "Bus Bus", 
            "Blender", 
            "Stand and Deliver", 
            "Late Bloom", 
            "Driver Education", 
            "Give In", 
            "Sober Girl", 
            "Cold Shoulder", 
            "Lucystoners", 
            "On Your Honor", 
            "Unknown", 
            "Rural Faggot", 
            "Who Sold the Gun", 
            "Blame Is a Killer", 
            "Put It Out for Good"
        ], 
        "encore_set": [
            "The Story", 
            "Laramie"
        ]
    }, 
    "url": "http://www.lifeblood.net/appearances/2009/20090204.html"
}{
    "date": "2009-02-06", 
    "venue": "Avalon Theater", 
    "location": "Salt Lake City, Utah", 
    "setlist": null, 
    "url": null
}{
    "date": "2009-02-07", 
    "venue": "Fox Theatre", 
    "location": "Boulder, Colorado", 
    "setlist": null, 
    "url": null
}{
    "date": "2009-02-28", 
    "venue": null, 
    "location": null, 
    "setlist": {
        "regular_set": [
            "Sugar Tongue", 
            "Love of Our Lives", 
            "Heartache for Everyone", 
            "Get Out the Map", 
            "Devotion", 
            "I'll Change", 
            "Ghost of the Gang", 
            "What Are You Like", 
            "Don't Think Twice It's All Right", 
            "Last Tears", 
            "Shame on You", 
            "Ozilline", 
            "Fill It Up Again", 
            "Power of Two", 
            "Second Time Around", 
            "Least Complicated", 
            "Kid Fears", 
            "Closer to Fine"
        ], 
        "encore_set": [
            "Rock and Roll Heaven's Gate", 
            "Galileo"
        ]
    }, 
    "url": "http://www.lifeblood.net/appearances/2009/20090228.html"
}