{
    "date": "2009-10-01", 
    "venue": "Whitaker Center", 
    "location": "Harrisburg, Pennsylvania", 
    "setlist": {
        "regular_set": [
            "Love of Our Lives", 
            "Sugar Tongue", 
            "Least Complicated", 
            "Devotion", 
            "Power of Two", 
            "Driver Education", 
            "What Are You Like", 
            "Gone Again", 
            "Come on Home", 
            "Heartache for Everyone", 
            "Get Out the Map", 
            "Shame on You", 
            "Fleet of Hope", 
            "Second Time Around", 
            "Fill It Up Again", 
            "Fugitive", 
            "Digging for Your Dream", 
            "Ozilline", 
            "I'll Change", 
            "Land of Canaan", 
            "Closer to Fine"
        ], 
        "encore_set": [
            "Wild Horses", 
            "Galileo"
        ]
    }, 
    "url": "http://www.lifeblood.net/appearances/2009/20091001.html"
}{
    "date": "2009-10-02", 
    "venue": "Music Hall", 
    "location": "Tarrytown, New York", 
    "setlist": {
        "regular_set": [
            "Love of Our Lives", 
            "Sugar Tongue", 
            "Fill It Up Again", 
            "Become You", 
            "Power of Two", 
            "Driver Education", 
            "What Are You Like", 
            "Gone Again", 
            "Come on Home", 
            "Ghost of the Gang", 
            "Get Out the Map", 
            "Shame on You", 
            "Fleet of Hope", 
            "Heartache for Everyone", 
            "Digging for Your Dream", 
            "Ozilline", 
            "The Wood Song", 
            "Hand Me Downs", 
            "I'll Change", 
            "Fugitive", 
            "Closer to Fine"
        ], 
        "encore_set": [
            "Wild Horses", 
            "Galileo"
        ]
    }, 
    "url": "http://www.lifeblood.net/appearances/2009/20091002.html"
}{
    "date": "2009-10-03", 
    "venue": "Mayo Center For The Performing Arts", 
    "location": "Morristown, New Jersey", 
    "setlist": {
        "regular_set": [
            "Love of Our Lives", 
            "Sugar Tongue", 
            "Least Complicated", 
            "Devotion", 
            "Power of Two", 
            "Ghost of the Gang", 
            "What Are You Like", 
            "Gone Again", 
            "Come on Home", 
            "Ozilline", 
            "Fleet of Hope", 
            "Chickenman", 
            "The Wood Song", 
            "Fugitive", 
            "Something Real", 
            "Heartache for Everyone", 
            "Get Out the Map", 
            "Second Time Around", 
            "Galileo"
        ], 
        "encore_set": [
            "Unknown", 
            "Wild Horses", 
            "Closer to Fine"
        ]
    }, 
    "url": "http://www.lifeblood.net/appearances/2009/20091003.html"
}{
    "date": "2009-10-04", 
    "venue": "Capitol Center For The Arts", 
    "location": "Concord, New Hampshire", 
    "setlist": {
        "regular_set": [
            "Love of Our Lives", 
            "Sugar Tongue", 
            "It's Alright", 
            "Become You", 
            "Power of Two", 
            "Driver Education", 
            "What Are You Like", 
            "Gone Again", 
            "Come on Home", 
            "Moment of Forgiveness", 
            "Get Out the Map", 
            "Shame on You", 
            "Fleet of Hope", 
            "Romeo and Juliet", 
            "Watershed", 
            "Ozilline", 
            "Digging for Your Dream", 
            "Hand Me Downs", 
            "I'll Change", 
            "Second Time Around", 
            "Closer to Fine"
        ], 
        "encore_set": [
            "Wild Horses", 
            "Galileo"
        ]
    }, 
    "url": "http://www.lifeblood.net/appearances/2009/20091004.html"
}{
    "date": "2009-10-08", 
    "venue": "Rams Head Live", 
    "location": "Baltimore, Maryland", 
    "setlist": null, 
    "url": null
}{
    "date": "2009-10-10", 
    "venue": "Tabernacle", 
    "location": "Atlanta, Georgia", 
    "setlist": null, 
    "url": null
}{
    "date": "2009-10-11", 
    "venue": "Workplay Soundstage", 
    "location": "Birmingham, Alabama", 
    "setlist": null, 
    "url": null
}{
    "date": "2009-10-12", 
    "venue": "George's Majestic Lounge", 
    "location": "Fayetteville, Arkansas", 
    "setlist": null, 
    "url": null
}{
    "date": "2009-10-14", 
    "venue": "Cain's Ballroom", 
    "location": "Tulsa, Oklahoma", 
    "setlist": null, 
    "url": null
}{
    "date": "2009-10-18", 
    "venue": "Academy", 
    "location": "Bristol, England", 
    "setlist": null, 
    "url": null
}{
    "date": "2009-10-19", 
    "venue": "Academy 2", 
    "location": "Manchester, England", 
    "setlist": {
        "regular_set": [
            "Love of Our Lives", 
            "Least Complicated", 
            "Three Hits", 
            "Devotion", 
            "Get Out the Map", 
            "Power of Two", 
            "Gone Again", 
            "Shame on You", 
            "Fleet of Hope", 
            "Everything in Its Own Time", 
            "Hammer and a Nail", 
            "Starkville", 
            "I'll Change", 
            "Driver Education", 
            "What Are You Like", 
            "Sugar Tongue", 
            "The Wood Song", 
            "Become You", 
            "Chickenman", 
            "-", 
            "Bitterroot", 
            "Fill It Up Again"
        ], 
        "encore_set": [
            "Closer to Fine", 
            "Galileo"
        ]
    }, 
    "url": "http://www.lifeblood.net/appearances/2009/20091019.html"
}{
    "date": "2009-10-21", 
    "venue": "The Sage Hall 2:", 
    "location": "Gateshead, England", 
    "setlist": null, 
    "url": null
}{
    "date": "2009-10-22", 
    "venue": "Abc", 
    "location": "Glasgow, Scotland", 
    "setlist": null, 
    "url": null
}{
    "date": "2009-10-23", 
    "venue": "Plug", 
    "location": "Sheffield, England", 
    "setlist": null, 
    "url": null
}{
    "date": "2009-10-25", 
    "venue": "Shepherd's Bush Empire", 
    "location": "London, England", 
    "setlist": null, 
    "url": null
}{
    "date": "2009-10-26", 
    "venue": "Concorde 2", 
    "location": "Brighton, England", 
    "setlist": {
        "regular_set": [
            "Three Hits", 
            "Gone Again", 
            "Hammer and a Nail", 
            "Driver Education", 
            "What Are You Like", 
            "Starkville", 
            "Thin Line", 
            "Love's Recovery", 
            "Yield", 
            "Pendulum Swinger", 
            "Sugar Tongue", 
            "Dairy Queen", 
            "Get Out the Map", 
            "Joking", 
            "Fleet of Hope", 
            "Second Time Around", 
            "Romeo and Juliet", 
            "Chickenman", 
            "-", 
            "Bitterroot", 
            "Closer to Fine", 
            "Redemption Song", 
            "Galileo"
        ], 
        "encore_set": []
    }, 
    "url": "http://www.lifeblood.net/appearances/2009/20091026.html"
}{
    "date": "2009-10-27", 
    "venue": "Academy", 
    "location": "Birmingham, England", 
    "setlist": null, 
    "url": null
}{
    "date": "2009-10-29", 
    "venue": "Pod", 
    "location": "Dublin, Ireland", 
    "setlist": null, 
    "url": null
}